3590324224,-82,-261,95,-879,40,-973
3590324225,-3842,-7569,1698,-1381,-93,-2299
3590324226,-1089,-2265,765,-988,69,-777
3590324227,-280,325,566,-1019,105,-774
3590324228,-371,1973,521,-957,127,-890
3590324229,-753,2287,427,-877,170,-1127
3590324230,-1297,1728,244,-771,224,-1274
3590324231,-1607,820,55,-746,208,-1227
3590324232,-1535,158,38,-866,150,-1083
3590324233,-1123,402,193,-975,101,-899
3590324234,-442,1328,441,-978,96,-799
3590324235,253,2111,652,-847,132,-859
3590324236,843,2124,781,-813,153,-993
3590324237,1146,1409,732,-829,164,-1111
3590324238,899,779,565,-805,161,-1106
3590324239,201,421,287,-766,202,-1120
3590324240,-844,330,35,-686,234,-1173
3590324241,-1450,-190,-228,-614,241,-1278
3590324242,-1574,-770,-325,-642,227,-1213
3590324243,-1304,-731,-230,-694,198,-1045
3590324244,-663,-332,-69,-847,202,-978
3590324245,-122,473,242,-885,226,-931
3590324246,344,1030,510,-818,261,-1018
3590324247,923,893,607,-763,253,-1095
3590324248,1113,374,604,-760,244,-1153
3590324249,757,-196,464,-775,261,-1211
3590324250,133,-659,250,-815,233,-1199
3590324251,-448,-749,75,-776,204,-1142
3590324252,-756,-611,-11,-711,227,-1107
3590324253,-450,-511,82,-693,205,-1033
3590324254,-468,1445,462,-653,311,-936
3590324255,1036,1723,798,-812,190,-1052
3590324256,1667,1529,944,-694,294,-1190
3590324257,1428,1251,992,-854,134,-1134
3590324258,860,921,570,-679,197,-1254
3590324259,169,691,393,-655,186,-1252
3590324260,-240,481,225,-654,218,-1285
3590324261,-313,336,165,-631,223,-1283
3590324262,-103,371,235,-633,204,-1230
3590324263,219,558,352,-629,227,-1224
3590324264,484,699,471,-611,216,-1242
3590324265,566,602,445,-569,249,-1300
3590324266,455,623,418,-540,270,-1236
3590324267,515,912,441,-566,221,-1132
3590324268,742,1229,587,-575,156,-1149
3590324269,808,1461,638,-515,210,-1118
3590324270,283,1241,714,-549,153,-1606
3590324271,161,1087,455,-489,287,-1262
3590324272,-198,965,377,-518,195,-1322
3590324273,-543,801,239,-501,224,-1300
3590324274,-760,557,161,-516,199,-1322
3590324275,-707,381,123,-507,206,-1285
3590324276,-512,352,164,-533,199,-1221
3590324277,-263,393,242,-517,189,-1229
3590324278,21,359,296,-494,193,-1247
3590324279,200,347,299,-477,210,-1254
3590324280,93,354,266,-473,226,-1274
3590324281,-83,315,216,-476,209,-1276
3590324282,-164,303,150,-442,235,-1274
3590324283,-165,314,97,-433,258,-1245
3590324284,-207,237,118,-447,222,-1293
3590324285,-173,124,133,-445,223,-1314
3590324286,-7,77,132,-439,241,-1283
3590324287,132,94,177,-447,238,-1285
3590324288,197,93,242,-452,227,-1295
3590324289,273,143,281,-445,234,-1261
3590324290,336,199,310,-437,236,-1294
3590324291,222,-120,317,-384,247,-1607
3590324292,208,-154,124,-400,323,-1301
3590324293,-65,-156,110,-432,202,-1360
3590324294,-266,-239,28,-435,266,-1303
3590324295,-310,-286,-35,-445,223,-1284
3590324296,-369,-301,-4,-426,228,-1269
3590324297,-230,-270,8,-445,239,-1250
3590324298,-63,-239,42,-400,249,-1255
3590324299,-47,-236,10,-364,256,-1303
3590324300,-249,-416,-44,-433,257,-1335
3590324301,-299,-435,-114,-458,227,-1235
3590324302,-267,-302,-51,-520,233,-1183
3590324303,122,-102,52,-500,253,-1154
3590324304,473,-29,129,-457,261,-1264
3590324305,324,-117,147,-434,274,-1352
3590324306,272,-136,149,-447,257,-1284
3590324307,414,-59,180,-464,245,-1251
3590324308,504,-8,208,-474,237,-1277
3590324309,463,-16,203,-453,236,-1292
3590324310,427,-79,192,-465,229,-1304
3590324311,486,-89,195,-457,217,-1280
3590324312,519,-34,107,-389,208,-1287
3590324313,124,-115,-17,-414,213,-1403
3590324314,-321,-223,-124,-432,239,-1363
3590324315,-695,-312,-282,-405,269,-1363
3590324316,-924,-325,-362,-414,253,-1313
3590324317,-906,-330,-345,-475,214,-1304
3590324318,-753,-289,-283,-449,260,-1283
3590324319,-597,-350,-328,-403,275,-1310
3590324320,-744,-353,-273,-545,291,-1306
3590324321,-912,-355,-309,-443,290,-1287
3590324322,-801,-277,-189,-551,312,-1199
3590324323,-424,-206,-72,-564,289,-1179
3590324324,-98,-50,54,-589,312,-1175
3590324325,30,-11,204,-642,332,-1222
3590324326,159,25,312,-690,338,-1194
3590324327,179,10,323,-551,326,-1232
3590324328,44,-43,340,-522,329,-1247
3590324329,55,-52,338,-521,307,-1221
3590324330,210,-10,395,-484,286,-1199
3590324331,478,119,497,-483,268,-1169
3590324332,714,247,525,-412,262,-1203
3590324333,691,303,506,-325,280,-1250
3590324334,465,210,375,-284,280,-1330
3590324335,305,417,299,-453,262,-1195
3590324336,6,266,228,-466,273,-1437
3590324337,174,143,96,-440,195,-1252
3590324338,172,135,28,-378,269,-1300
3590324339,-86,119,115,-496,206,-1357
3590324340,461,536,204,-422,275,-1142
3590324341,346,666,39,-246,354,-1403
3590324342,-642,390,-131,-204,376,-1413
3590324343,-1390,-19,-559,-288,319,-1439
3590324344,-2016,22,-745,-403,258,-1250
3590324345,-2053,101,-917,-411,340,-1107
3590324346,-1856,-147,-866,-457,365,-1195
3590324347,-1720,-61,-603,-642,313,-1183
3590324348,-627,4,-575,-537,391,-1092
3590324349,-42,256,-112,-489,286,-1126
3590324350,396,418,-91,-450,360,-1211
3590324351,288,206,-28,-430,324,-1318
3590324352,302,147,-228,-421,382,-1226
3590324353,36,81,-341,-431,365,-1259
3590324354,-206,-162,-452,-429,319,-1307
3590324355,-41,-185,-480,-415,373,-1149
3590324356,213,-144,-310,-456,302,-1178
3590324357,419,-105,-335,-433,372,-1224
3590324358,186,-175,-361,-442,399,-1300
3590324359,-26,-271,-451,-428,383,-1293
3590324360,16,-278,-474,-459,376,-1225
3590324361,25,-243,-358,-505,325,-1262
3590324362,165,-191,-307,-488,338,-1228
3590324363,348,-125,-259,-489,331,-1230
3590324364,457,-85,-230,-474,353,-1229
3590324365,461,-111,-217,-492,344,-1274
3590324366,269,-213,-271,-481,346,-1297
3590324367,93,-344,-336,-458,348,-1278
3590324368,88,-411,-319,-483,320,-1248
3590324369,224,-429,-240,-493,290,-1254
3590324370,389,-373,-224,-501,330,-1234
3590324371,457,-414,-189,-482,318,-1275
3590324372,423,-455,-232,-450,329,-1262
3590324373,347,-573,-217,-484,309,-1279
3590324374,361,-610,-256,-487,308,-1235
3590324375,360,-634,-174,-519,281,-1235
3590324376,450,-568,-171,-525,279,-1214
3590324377,512,-506,-137,-539,279,-1220
3590324378,557,-444,-108,-561,256,-1217
3590324379,580,-389,-107,-577,235,-1226
3590324380,541,-361,-131,-565,241,-1246
3590324381,483,-393,-121,-574,241,-1263
3590324382,508,-408,-116,-567,232,-1253
3590324383,509,-390,-163,-553,232,-1269
3590324384,374,-493,-188,-580,223,-1301
3590324385,246,-574,-247,-583,212,-1281
3590324386,260,-609,-279,-605,212,-1248
3590324387,350,-678,-292,-616,217,-1218
3590324388,422,-834,-256,-635,204,-1193
3590324389,482,-967,-235,-621,206,-1180
3590324390,463,-1000,-226,-636,197,-1169
3590324391,422,-1026,-202,-673,190,-1159
3590324392,397,-942,-173,-683,187,-1142
3590324393,440,-807,-129,-704,186,-1144
3590324394,443,-673,-57,-711,187,-1163
3590324395,467,-572,4,-691,189,-1165
3590324396,491,-472,61,-691,173,-1161
3590324397,508,-344,101,-690,156,-1170
3590324398,504,-223,128,-699,135,-1181
3590324399,432,-140,136,-692,138,-1209
3590324400,334,-137,119,-674,139,-1231
3590324401,305,-165,100,-645,139,-1230
3590324402,338,-185,77,-664,123,-1212
3590324403,349,-159,61,-693,112,-1215
3590324404,251,-170,43,-693,121,-1229
3590324405,118,-216,29,-696,118,-1220
3590324406,43,-263,23,-708,117,-1209
3590324407,11,-294,24,-703,125,-1192
3590324408,63,-285,21,-700,120,-1153
3590324409,165,-233,29,-706,114,-1133
3590324410,250,-193,47,-704,100,-1130
3590324411,276,-173,39,-698,101,-1139
3590324412,230,-194,39,-711,99,-1150
3590324413,209,-226,29,-714,91,-1141
3590324414,194,-286,17,-729,96,-1152
3590324415,179,-377,14,-724,98,-1156
3590324416,152,-425,11,-734,95,-1152
3590324417,128,-416,6,-749,93,-1151
3590324418,100,-357,11,-752,93,-1153
3590324419,85,-303,15,-757,87,-1151
3590324420,64,-286,10,-750,93,-1157
3590324421,6,-370,-1,-745,100,-1180
3590324422,-76,-453,3,-748,90,-1186
3590324423,-83,-465,-15,-753,75,-1162
3590324424,-4,-390,-19,-761,64,-1125
3590324425,140,-209,-19,-749,50,-1080
3590324426,294,-64,-15,-753,47,-1069
3590324427,451,-3,45,-775,38,-1066
3590324428,688,71,25,-751,41,-1059
3590324429,818,107,16,-762,45,-1098
3590324430,762,136,-2,-749,37,-1107
3590324431,657,199,-46,-729,1,-1086
3590324432,468,133,-157,-711,14,-1137
3590324433,56,-76,-249,-695,0,-1158
3590324434,-416,-427,-544,-656,0,-1190
3590324435,-1158,-939,-725,-727,25,-1282
3590324436,-1522,-1317,-920,-714,0,-1109
3590324437,-1484,-1203,-1071,-852,-72,-992
3590324438,-1040,-655,-1008,-891,-58,-847
3590324439,-699,-96,-1059,-938,-37,-984
3590324440,-1097,-266,-1158,-1007,249,-1180
3590324441,-1988,-970,-1272,-980,368,-1258
3590324442,-2714,-1549,-1394,-824,349,-1213
3590324443,-2554,-1998,-1184,-786,131,-1181
3590324444,-1339,-1777,-1011,-719,83,-1050
3590324445,280,-804,-504,-822,73,-808
3590324446,1804,211,51,-986,71,-860
3590324447,2559,382,440,-1194,184,-1093
3590324448,2641,21,916,-1202,242,-942
3590324449,2633,-478,971,-1038,205,-1064
3590324450,2439,-887,1015,-847,109,-1004
3590324451,2302,-834,936,-821,13,-957
3590324452,1975,-754,984,-974,-3,-982
3590324453,979,-622,805,-907,26,-1134
3590324454,41,-485,456,-791,43,-1177
3590324455,-648,-622,191,-700,30,-1152
3590324456,-1168,-1007,-15,-726,1,-1162
3590324457,-1262,-1450,-152,-849,22,-1059
3590324458,-934,-1620,-79,-1064,-24,-902
3590324459,-267,-1372,44,-1164,1,-696
3590324460,987,-1245,531,-1467,-16,-480
3590324461,2514,-785,1118,-1442,-43,-440
3590324462,3825,-232,1551,-1198,36,-536
3590324463,4080,-143,1702,-914,92,-952
3590324464,2507,-1016,1475,-751,189,-1622
3590324465,-1102,-4006,458,-572,220,-1677
3590324466,-1880,-3338,358,-885,20,-265
3590324467,-3295,-3327,360,-1213,426,-1448
3590324468,-3831,-2768,515,-1351,166,-763
3590324469,-3818,-2221,775,-1288,245,-836
3590324470,-3163,-1676,1166,-1332,278,-868
3590324471,-2059,-750,1736,-1310,330,-803
3590324472,-901,348,2312,-1310,357,-849
3590324473,100,1136,2796,-1295,360,-896
3590324474,810,1219,3167,-1300,379,-983
3590324475,553,1721,3325,-1196,436,-877
3590324476,-114,2245,3464,-1141,367,-801
3590324477,283,1508,3552,-1211,111,-904
3590324478,286,1120,2921,-1090,247,-1001
3590324479,-40,1120,2465,-968,344,-948
3590324480,-776,747,2586,-1284,-30,-946
3590324481,-1766,291,2074,-1241,37,-1045
3590324482,-1769,124,2375,-1346,-275,-622
3590324483,-2138,-673,1526,-1107,-86,-751
3590324484,-36,-617,1054,-840,-46,122
3590324485,-118,-467,626,-821,0,-276
3590324486,1566,113,319,-868,57,-926
3590324487,5540,875,-2,-856,-295,834
3590324488,10413,398,1552,-1101,-568,376
3590324489,14651,-1208,1545,-906,-357,-122
3590324490,15104,-3530,2257,-1274,-455,-914
3590324491,13821,-5218,1459,-1155,-80,-925
3590324492,10274,-6245,1219,-1502,-153,-1190
3590324493,5917,-7036,647,-1374,187,-1111
3590324494,1540,-8326,-92,-1638,155,-1245
3590324495,-2370,-9946,-810,-1568,50,-1147
3590324496,-5763,-10979,-1471,-1548,-107,-959
3590324497,-7841,-11077,-2318,-1481,-187,-563
3590324498,-7618,-10112,-2651,-1446,-208,93
3590324499,-2248,-404,-5521,-2286,1242,-12929
3590324500,-4009,-1578,1286,-3788,-1363,-17654
3590324501,8724,-2449,161,-1268,-1,-2564
3590324502,13953,437,-611,-1495,-710,381
3590324503,14345,5490,-720,-1366,-639,51
3590324504,12074,8053,-1249,-1303,-239,-1399
3590324505,2835,3149,-1561,-1375,112,-1645
3590324506,-1478,1173,-1554,-1672,98,-680
3590324507,-4186,2230,-743,-1725,286,-135
3590324508,-6084,3812,1378,-2022,-265,-366
3590324509,-8097,3913,333,-1042,465,-734
3590324510,-9431,1719,-446,-1032,143,-917
3590324511,-10103,-1339,-561,-1118,-212,-776
3590324512,-9968,-2484,-437,-1441,-546,-157
3590324513,-7733,256,592,-1459,-321,823
3590324514,-2401,1983,929,-1326,-491,760
3590324515,3414,2153,1339,-1289,-437,370
3590324516,8026,1580,1758,-1415,-429,53
3590324517,10226,1248,1598,-1201,-257,-204
3590324518,10006,1469,1716,-1342,-242,-443
3590324519,7987,1793,1604,-1213,-207,-691
3590324520,5248,1142,1172,-1181,-231,-990
3590324521,2210,-849,650,-1183,-169,-1235
3590324522,-1065,-2992,-250,-1170,-52,-1175
3590324523,-4206,-4192,-649,-1360,-171,-897
3590324524,-7220,-3739,-792,-1366,-268,-579
3590324525,-8990,-2910,-1322,-1150,-148,-324
3590324526,-8612,-3166,-1474,-1221,-231,-171
3590324527,-5340,-3662,-1337,-1287,-210,366
3590324528,-167,-3023,-689,-1395,-161,815
3590324529,5153,-2292,-127,-1571,-242,531
3590324530,8768,-1941,173,-1373,-316,65
3590324531,9658,-1530,369,-1423,-362,-357
3590324532,8155,-631,338,-1328,-326,-598
3590324533,-2539,-2724,-1666,-163,1187,-11875
3590324534,-7425,-2512,-1467,-1326,-228,-1706
3590324535,-8382,-952,-1251,-1313,-221,83
3590324536,-5930,590,-325,-1378,-135,511
3590324537,-1138,497,-2,-1470,-99,408
3590324538,3905,-310,353,-1384,-69,271
3590324539,7330,-662,619,-1473,-172,47
3590324540,7890,621,664,-1344,-234,-133
3590324541,5884,2941,668,-1307,-228,-385
3590324542,3003,3902,486,-1311,-167,-829
3590324543,368,2356,83,-1166,-56,-1136
3590324544,-1966,-279,-386,-1253,-80,-1126
3590324545,-4470,-1231,-616,-1285,-140,-673
3590324546,-6794,172,-600,-1495,-193,-222
3590324547,-7680,2407,-215,-1613,-140,33
3590324548,-6267,2985,151,-1504,-92,-1
3590324549,-3167,1453,463,-1339,-29,-102
3590324550,409,-410,721,-1371,-36,-3
3590324551,3131,-300,888,-1293,-7,286
3590324552,3993,1740,981,-1359,-125,186
3590324553,3594,3815,949,-1266,-187,-123
3590324554,2937,3878,617,-1135,-158,-551
3590324555,2366,1869,330,-1081,-140,-816
3590324556,1466,-406,44,-1129,-127,-811
3590324557,-71,-1393,-288,-1286,-129,-604
3590324558,-2185,-508,-498,-1387,-110,-367
3590324559,-4039,765,-556,-1361,-64,-338
3590324560,-4764,579,-654,-1292,1,-451
3590324561,-4222,-1100,-714,-1218,1,-445
3590324562,-2727,-2741,-567,-1317,-21,-176
3590324563,-724,-2701,-173,-1443,-41,242
3590324564,1387,-1412,276,-1467,-113,292
3590324565,3227,-639,340,-1363,-173,-6
3590324566,4317,-764,362,-1275,-223,-296
3590324567,4534,-1253,158,-1286,-226,-458
3590324568,3792,-1411,-21,-1313,-220,-507
3590324569,2391,-1235,-251,-1295,-156,-535
3590324570,786,-1248,-442,-1321,-124,-596
3590324571,-513,-1692,-737,-1314,-60,-589
3590324572,-1376,-2223,-868,-1351,-53,-477
3590324573,-1636,-2210,-775,-1397,-52,-225
3590324574,-1119,-1506,-472,-1449,-44,5
3590324575,25,-732,-123,-1430,-25,19
3590324576,1370,-732,184,-1416,-31,-164
3590324577,2311,-1186,357,-1366,-34,-305
3590324578,2350,-1222,473,-1376,-76,-344
3590324579,1371,-448,539,-1354,-107,-365
3590324580,-158,421,503,-1323,-122,-460
3590324581,-1562,483,313,-1304,-134,-588
3590324582,-2487,-200,-35,-1283,-126,-596
3590324583,-3035,-696,-177,-1321,-163,-407
3590324584,-3081,-142,-156,-1379,-159,-93
3590324585,-2392,1232,73,-1413,-137,115
3590324586,-973,2181,332,-1404,-104,37
3590324587,732,1967,483,-1348,-93,-164
3590324588,2135,1196,508,-1341,-93,-276
3590324589,2694,1056,462,-1348,-106,-250
3590324590,2223,1908,448,-1368,-116,-240
3590324591,1122,2885,410,-1357,-99,-372
3590324592,18,2835,273,-1321,-62,-569
3590324593,-849,1725,81,-1286,-33,-664
3590324594,-1608,525,-73,-1323,-26,-566
3590324595,-2391,266,-69,-1391,-28,-346
3590324596,-3057,983,86,-1423,-26,-180
3590324597,-3243,1550,240,-1389,-25,-201
3590324598,-2721,1013,285,-1298,-66,-326
3590324599,-1495,-308,165,-1237,-131,-306
3590324600,-167,-1061,83,-1311,-167,-139
3590324601,706,-285,120,-1352,-168,47
3590324602,1208,1035,221,-1348,-182,-18
3590324603,1709,1301,163,-1281,-134,-280
3590324604,2213,238,31,-1237,-93,-479
3590324605,2440,-1174,-121,-1278,-34,-500
3590324606,2111,-1723,-192,-1359,-6,-369
3590324607,1272,-1170,-111,-1418,-10,-274
3590324608,330,-510,-30,-1387,-8,-340
3590324609,-314,-840,-57,-1328,-8,-497
3590324610,-593,-2050,-164,-1286,-35,-559
3590324611,-727,-3110,-314,-1312,-64,-446
3590324612,-967,-2977,-356,-1348,-107,-211
3590324613,-1165,-1839,-304,-1389,-138,-77
3590324614,-945,-878,-280,-1365,-122,-131
3590324615,-194,-1006,-312,-1332,-111,-264
3590324616,856,-1761,-393,-1329,-101,-287
3590324617,1738,-2012,-411,-1374,-108,-169
3590324618,2110,-1136,-293,-1403,-119,-61
3590324619,2012,52,-125,-1384,-118,-166
3590324620,1722,341,-37,-1355,-91,-412
3590324621,1340,-354,-30,-1301,-61,-556
3590324622,722,-1111,-77,-1331,-48,-519
3590324623,-266,-889,-19,-1378,-70,-353
3590324624,-1412,85,125,-1387,-77,-279
3590324625,-2156,644,108,-1402,-21,-343
3590324626,-2372,405,177,-1299,-52,-382
3590324627,-2125,-157,240,-1355,-71,-323
3590324628,-1765,-166,394,-1419,-111,-181
3590324629,-1483,553,522,-1492,-126,-115
3590324630,-1080,1311,608,-1351,-131,-136
3590324631,-655,1674,717,-1293,-112,-242
3590324632,-167,1279,562,-1274,-146,-332
3590324633,154,898,369,-1323,-176,-325
3590324634,37,1281,299,-1384,-225,-257
3590324635,-265,2120,155,-1304,-156,-205
3590324636,-422,2468,6,-1320,-90,-287
3590324637,-295,2031,-60,-1268,-21,-335
3590324638,63,1328,-211,-1314,72,-289
3590324639,376,1032,-19,-1398,74,-184
3590324640,556,1330,237,-1453,127,-103
3590324641,918,1514,896,-1709,62,-201
3590324642,1034,929,893,-1429,311,-386
3590324643,414,227,1058,-1193,323,-366
3590324644,-452,396,2287,-1637,57,-211
3590324645,-1629,-30,3533,-1467,-51,-569
3590324646,-1307,-637,3002,-1545,-295,-485
3590324647,-161,-1800,2305,-1410,-152,-395
3590324648,1388,-2334,1831,-1406,-99,-105
3590324649,2727,-1591,1646,-1362,-101,175
3590324650,3633,-496,1834,-1435,-263,33
3590324651,4610,-192,1815,-1462,-235,-220
3590324652,5344,-803,1439,-1247,-131,-369
3590324653,5486,-1553,1277,-1217,-188,-441
3590324654,4835,-1549,921,-1124,-190,-361
3590324655,2588,-1224,647,-1180,-210,-1004
3590324656,-3516,-1907,-451,-1187,-206,-1007
3590324657,-5344,-1941,-1055,-1446,-468,-382
3590324658,-4789,-1968,-1238,-1534,-560,-167
3590324659,-2783,-1703,-1708,-1514,-513,53
3590324660,-619,-133,-4107,-988,204,317
3590324661,-1401,1673,-4368,-1201,317,-67
3590324662,-2061,457,-3563,-1234,152,-482
3590324663,-3364,-1351,-4034,-984,385,-580
3590324664,-5326,-523,-3747,-1098,63,-122
3590324665,-6346,1109,-3662,-1307,27,-126
3590324666,-3885,1296,-3019,-1535,-119,170
3590324667,1170,-494,-2279,-1841,-113,208
3590324668,3286,991,-1903,-2015,-51,260
3590324669,2674,3601,-1653,-1923,-6,-138
3590324670,2760,1640,-1489,-1590,172,-982
3590324671,1560,803,-2498,-1200,381,-444
3590324672,-3669,3047,-1350,-1413,432,-916
3590324673,-4671,299,-1771,-748,1097,-1789
3590324674,-8199,-3731,459,-1888,-380,-1235
3590324675,-10622,-3803,-223,-1489,-287,-21
3590324676,-9840,-2275,-73,-905,-186,885
3590324677,-7601,567,1116,-1658,-466,932
3590324678,-1790,578,1983,-1976,-816,264
3590324679,5028,-1233,2181,-1534,-162,463
3590324680,9406,-2382,3615,-1602,-664,20
3590324681,11994,-859,3187,-1022,-311,218
3590324682,10492,1806,4102,-1192,-480,-361
3590324683,8733,2183,3422,-950,-38,-746
3590324684,5931,-44,2707,-1417,-62,-1279
3590324685,2497,-2567,2184,-1081,116,-982
3590324686,-819,-2777,494,-828,133,-571
3590324687,-5249,-1519,82,-1118,-53,-537
3590324688,-8315,-1556,-947,-1101,-21,-681
3590324689,-9699,-3475,-2317,-1395,-225,-860
3590324690,-11000,-4795,-2406,-1517,-486,-512
3590324691,-10383,-3931,-2339,-1361,-639,205
3590324692,-8286,-869,-2041,-1352,-436,853
3590324693,-4469,1494,-1161,-1590,-513,704
3590324694,18,1666,-369,-1800,-418,254
3590324695,3618,787,27,-1631,-306,10
3590324696,5225,803,162,-1316,-109,4
3590324697,4259,2365,68,-1204,-45,-189
3590324698,2067,3317,-536,-1050,224,-507
3590324699,-1176,2524,-1257,-1330,209,-1044
3590324700,-5003,651,-1836,-1305,215,-1135
3590324701,-8636,-313,-2587,-1146,100,-779
3590324702,-11947,525,-2659,-1196,-153,-382
3590324703,-12860,1526,-2955,-1224,-220,-57
3590324704,-11131,1269,-2428,-1543,-382,91
3590324705,-6556,-112,-1401,-1690,-436,362
3590324706,-846,-746,-61,-1634,-282,776
3590324707,3848,366,1188,-1617,-257,718
3590324708,6010,2230,1832,-1574,-59,249
3590324709,5351,3101,2031,-1635,100,-461
3590324710,2838,2476,1755,-1620,279,-886
3590324711,-685,1645,1403,-1501,292,-867
3590324712,-3950,1439,756,-1266,294,-564
3590324713,-6270,1666,319,-1241,118,-345
3590324714,-6646,1318,-130,-1226,45,-157
3590324715,-5174,27,-110,-1341,-92,-65
3590324716,-2202,-1586,177,-1387,-123,126
3590324717,1145,-2413,714,-1445,-136,296
3590324718,3893,-2115,1209,-1499,-98,291
3590324719,5139,-1060,1621,-1603,-54,64
3590324720,4706,15,1792,-1665,20,-245
3590324721,3044,483,1769,-1666,113,-516
3590324722,718,523,1557,-1602,146,-605
3590324723,-1631,546,1205,-1446,153,-515
3590324724,-3549,809,818,-1315,93,-356
3590324725,-4549,988,455,-1224,35,-223
3590324726,-4383,652,172,-1192,-21,-145
3590324727,-3177,-217,62,-1183,-65,-77
3590324728,-1310,-1180,109,-1161,-86,12
3590324729,623,-1638,175,-1136,-68,94
3590324730,1997,-1569,221,-1152,-40,33
3590324731,2438,-1352,149,-1212,7,-145
3590324732,1900,-1387,-59,-1274,72,-362
3590324733,501,-1603,-407,-1325,124,-505
3590324734,-1500,-1595,-764,-1333,128,-492
3590324735,-3622,-1077,-1117,-1300,101,-383
3590324736,-5397,-232,-1289,-1289,15,-261
3590324737,-6114,478,-1330,-1253,-36,-106
3590324738,-5343,649,-1202,-1237,-104,21
3590324739,-3170,274,-946,-1179,-121,155
3590324740,-521,-140,-710,-1130,-82,192
3590324741,1339,-259,-404,-1132,-49,62
3590324742,1989,-140,-270,-1106,39,-100
3590324743,1427,-129,-337,-1141,112,-335
3590324744,-63,-518,-482,-1198,159,-530
3590324745,-1964,-1047,-648,-1230,156,-536
3590324746,-3590,-1272,-879,-1239,104,-375
3590324747,-4565,-1035,-846,-1281,26,-161
3590324748,-4193,-745,-842,-1323,-8,27
3590324749,-2795,-716,-578,-1450,-56,86
3590324750,-750,-1066,-204,-1541,-67,76
3590324751,1209,-1324,110,-1598,-19,57
3590324752,2494,-1166,-90,-1566,156,1
3590324753,1643,-608,774,-1922,-108,-361
3590324754,743,54,49,-1565,351,-227
3590324755,-1370,536,275,-1857,46,-523
3590324756,-3172,1071,-170,-1505,264,-302
3590324757,-4627,1163,-56,-1644,-9,-403
3590324758,-4785,741,74,-1408,38,-124
3590324759,-3393,493,429,-1318,-109,163
3590324760,-1094,975,785,-1122,-74,414
3590324761,1497,1447,865,-948,59,372
3590324762,2359,1392,1434,-1314,-268,-302
3590324763,2745,465,1015,-831,322,-209
3590324764,1698,-377,899,-1116,14,-547
3590324765,-254,-592,767,-918,225,-375
3590324766,-2138,-442,230,-958,159,-371
3590324767,-4127,-241,140,-1064,114,-347
3590324768,-4983,-656,-197,-1120,67,-294
3590324769,-4981,-1171,-105,-1263,-44,-123
3590324770,-3758,-1485,196,-1303,-94,108
3590324771,-1792,-1170,875,-1377,-128,327
3590324772,641,-451,1526,-1395,-135,364
3590324773,3029,276,1428,-1244,107,311
3590324774,3424,564,2299,-1579,-188,-271
3590324775,3593,468,1530,-1255,190,-253
3590324776,2194,367,1511,-1339,97,-453
3590324777,680,379,719,-1130,260,-373
3590324778,-1194,472,114,-1178,188,-423
3590324779,-2813,117,-588,-1207,142,-485
3590324780,-3805,-655,-1371,-1191,156,-380
3590324781,-4710,-752,-2100,-1147,154,-205
3590324782,-5740,-536,-2044,-1303,71,-239
3590324783,-5604,-1127,-1721,-1517,-79,-226
3590324784,-4585,-827,-1629,-1409,-8,167
3590324785,-3405,10,-1037,-1400,58,313
3590324786,-1846,54,-298,-1538,58,97
3590324787,-833,90,55,-1532,133,-21
3590324788,-1058,243,68,-1470,306,-180
3590324789,-2440,212,280,-1475,362,-326
3590324790,-3710,-115,-37,-1411,366,-330
3590324791,-5074,-30,-283,-1357,362,-195
3590324792,-5905,31,-416,-1376,252,-144
3590324793,-5704,-213,-691,-1277,338,59
3590324794,-4843,-985,313,-1464,-97,29
3590324795,-174,-1680,1436,-925,-112,1008
3590324796,7640,-1380,1665,-720,-385,1220
3590324797,11733,-1443,2418,-973,-486,-8
3590324798,11394,-2073,2098,-1054,-19,-743
3590324799,8137,-4015,1418,-1538,47,-1360
3590324800,3062,-4778,93,-1546,191,-1170
3590324801,-4075,-2351,-522,-1491,117,-783
3590324802,-10810,767,-1140,-1619,-55,-716
3590324803,-14880,1443,-2264,-1717,-310,-865
3590324804,-16134,1201,-2712,-1395,-595,-303
3590324805,-13211,1561,-2970,-1060,-504,604
3590324806,-6818,1198,-1545,-1219,-667,929
3590324807,2109,-250,250,-1173,-567,1063
3590324808,9461,-172,1005,-746,-175,981
3590324809,10654,3056,13,-604,148,274
3590324810,6775,3067,379,-1202,207,-1261
3590324811,2199,-197,1493,-2685,1402,-1752
3590324812,-581,-388,2019,-2733,1859,-52
3590324813,-6619,4524,2034,-966,430,210
3590324814,-9654,6923,1284,-898,214,138
3590324815,-3372,2579,554,-1240,328,242
3590324816,344,731,720,-1566,-131,275
3590324817,1172,1296,1565,-1898,-86,142
3590324818,3197,574,2424,-1743,-164,-110
3590324819,4692,-144,3028,-1393,-340,-227
3590324820,5328,-336,3471,-1333,-211,-263
3590324821,6101,-595,3745,-1367,58,-305
3590324822,6815,-826,3917,-1283,188,-372
3590324823,7227,-1109,3041,-752,868,-427
3590324824,6023,-943,2212,-1228,448,-1023
3590324825,2463,-49,1856,-1203,723,-1515
3590324826,-737,168,1525,-1136,785,-1511
3590324827,-3324,534,1141,-1106,757,-973
3590324828,-4732,911,682,-1066,770,-446
3590324829,-5456,1713,-166,-893,953,-8
3590324830,-5420,2477,-1006,-1065,879,105
3590324831,-4004,2016,-1175,-1377,392,-108
3590324832,-1900,600,-732,-1522,68,-269
3590324833,-1248,307,-58,-1490,93,-180
3590324834,-742,221,545,-1317,212,-87
3590324835,-42,161,687,-1098,332,5
3590324836,981,-168,570,-1058,414,-31
3590324837,1491,-390,581,-1116,326,-189
3590324838,1381,-391,754,-1168,291,-326
3590324839,1180,-476,772,-1115,492,-382
3590324840,782,-604,634,-1125,524,-482
3590324841,-162,-418,742,-1187,372,-523
3590324842,-563,-637,771,-1090,461,-417
3590324843,31,-1173,0,-772,871,-161
3590324844,1052,-2130,-306,-1184,474,-290
3590324845,900,-2115,-460,-1070,667,-202
3590324846,-196,-1431,-585,-1166,703,-302
3590324847,-1394,-862,-474,-1293,626,-408
3590324848,-2000,-865,-584,-1129,763,-372
3590324849,-1945,-1372,-1007,-1054,799,-325
3590324850,-2881,-1075,-1173,-1228,550,-323
3590324851,-4176,-504,-1116,-1277,467,-273
3590324852,-4331,-846,-1340,-1192,541,-223
3590324853,-3560,-1891,-1854,-1069,612,-169
3590324854,-3590,-2387,-2376,-1065,515,-189
3590324855,-4732,-2240,-2554,-1209,247,-328
3590324856,-6237,-1949,-2555,-1199,165,-354
3590324857,-8242,-1049,-2799,-1046,284,-157
3590324858,-9889,-120,-3428,-957,353,2
3590324859,-10183,-46,-4323,-904,276,66
3590324860,-10214,-229,-5098,-998,2,3
3590324861,639,-3541,-2946,-2217,-1589,3170
3590324862,-419,-982,-1594,-2014,-564,665
3590324863,451,-1222,-34,-1566,-357,269
3590324864,452,-860,515,-1440,5,445
3590324865,948,-1342,826,-1432,-8,200
3590324866,745,-1146,629,-1137,295,351
3590324867,759,-1347,279,-1252,189,181
3590324868,519,-1293,45,-1176,118,284
3590324869,571,-1634,-101,-1173,51,211
3590324870,100,-1340,-482,-1154,220,388
3590324871,171,-1658,-445,-1348,36,260
3590324872,-79,-1482,-551,-1165,37,437
3590324873,157,-1705,-269,-1374,-147,428
3590324874,-135,-1423,-450,-1152,110,514
3590324875,92,-1801,-725,-1311,176,398
3590324876,-65,-1659,-789,-1391,64,642
3590324877,-509,-1215,-645,-1411,-57,637
3590324878,-442,-1257,-576,-1284,-90,588
3590324879,21,-1632,-595,-1450,24,656
3590324880,17,-1588,-249,-1524,-87,645
3590324881,412,-2087,16,-1351,-177,522
3590324882,775,-2481,20,-1244,24,668
3590324883,567,-2328,112,-1302,51,772
3590324884,159,-1959,213,-1269,48,818
3590324885,-436,-1533,288,-1118,-62,695
3590324886,-429,-1747,387,-1159,-91,646
3590324887,-468,-2135,417,-1020,-50,617
3590324888,241,-3160,378,-1264,134,695
3590324889,873,-3103,1232,-1277,-10,842
3590324890,1419,344,1190,-567,70,1142
3590324891,2451,4718,1320,-901,-62,1069
3590324892,4247,5332,2081,-969,-284,558
3590324893,3106,-2800,1424,-989,280,-296
3590324894,-1428,-1090,947,-1131,245,1554
3590324895,-3981,559,1124,-1032,99,1436
3590324896,-4752,1439,927,-1223,128,1233
3590324897,-3874,801,1194,-1135,-216,774
3590324898,-1177,-912,1099,-1159,21,753
3590324899,-624,-1145,1220,-1064,-76,846
3590324900,-1463,-973,1037,-1081,37,506
3590324901,-2371,-1024,976,-961,-95,360
3590324902,-2708,-1238,929,-885,-94,577
3590324903,-2283,-1520,689,-894,49,849
3590324904,-1975,-2029,501,-989,39,749
3590324905,-1781,-2804,476,-1068,14,767
3590324906,-1494,-3346,597,-1085,-31,1106
3590324907,-1012,-3335,762,-1015,14,1460
3590324908,-454,-2980,510,-1062,274,1544
3590324909,-679,-2569,312,-1038,175,1275
3590324910,-610,-1925,376,-951,52,1557
3590324911,-500,-1194,274,-920,187,1515
3590324912,-411,-1030,-101,-890,317,1184
3590324913,-451,-1641,-363,-798,105,793
3590324914,-683,-2401,-333,-837,-110,914
3590324915,-890,-3250,94,-780,-388,989
3590324916,856,-2650,479,-767,-451,1680
3590324917,806,-2380,694,-818,-254,1231
3590324918,-635,-1324,469,-631,78,1196
3590324919,-1168,-1385,-271,-494,269,773
3590324920,-1058,-2212,-631,-510,-151,633
3590324921,-1243,-2628,-72,-777,-508,841
3590324922,-1383,-2692,-76,-455,-91,1245
3590324923,-1093,-2718,-44,-533,-142,1463
3590324924,-844,-2417,-8,-526,-165,1749
3590324925,-622,-1887,105,-560,-250,1811
3590324926,-437,-1423,296,-560,-274,1702
3590324927,-603,-1096,496,-516,-234,1472
3590324928,-922,-1047,559,-387,-191,1190
3590324929,-570,-1248,345,-399,-159,982
3590324930,-1036,-1220,102,-301,-134,792
3590324931,-2611,-1130,-6,-85,-218,685
3590324932,-3260,-1465,-84,-276,-235,741
3590324933,-2506,-1652,-396,-252,-324,1171
3590324934,-2308,-1776,-250,-323,-442,1427
3590324935,-1910,-1950,-96,-678,-453,1567
3590324936,-1556,-1733,-65,-366,-423,1695
3590324937,-1631,-1784,9,-407,-425,1246
3590324938,-1880,-1697,124,-332,-510,1160
3590324939,-1224,-1678,25,-222,-458,1112
3590324940,-1314,-2563,-53,-527,-496,378
3590324941,-52,-1620,-235,-100,-616,1619
3590324942,-694,-376,-837,-159,-648,1542
3590324943,74,346,-1226,-335,-746,1754
3590324944,1140,348,-1013,-656,-355,1456
3590324945,1359,84,-353,-845,-304,1068
3590324946,886,315,217,-739,-325,1282
3590324947,319,-772,673,-448,-320,1299
3590324948,510,-255,451,-35,-372,2160
3590324949,153,-84,418,-25,-108,817
3590324950,-2306,-23,443,47,113,352
3590324951,-4684,-228,317,170,-53,757
3590324952,-512,-557,-648,795,-1360,3115
3590324953,838,-1068,-97,-314,-882,654
3590324954,1427,-2715,-507,-13,-978,967
3590324955,3802,-1231,-392,-436,-404,2429
3590324956,1989,105,-101,-373,-171,470
3590324957,217,175,231,-334,-348,1972
3590324958,-111,1290,552,-157,-517,1420
3590324959,-460,808,550,-63,-504,1008
3590324960,-780,533,455,-64,-402,1330
3590324961,-1016,958,316,-236,-475,1374
3590324962,-2170,978,101,-152,-470,1239
3590324963,-2842,1284,-223,-158,-507,1190
3590324964,-3275,1251,-532,-177,-602,1070
3590324965,-3820,755,-688,-152,-677,904
3590324966,-4333,125,-805,-142,-741,872
3590324967,-4178,-144,-787,-143,-832,1071
3590324968,-3549,-62,-702,-151,-886,1105
3590324969,-2511,38,-570,-161,-947,1076
3590324970,-1423,130,-375,-176,-959,1021
3590324971,-294,427,-178,-167,-956,1114
3590324972,1037,952,93,-188,-991,1326
3590324973,2777,1733,318,-303,-819,1331
3590324974,4647,1301,628,-183,-864,1271
3590324975,5399,407,885,-209,-707,1176
3590324976,1853,541,609,-220,-348,1143
3590324977,-693,418,384,-424,-441,884
3590324978,-1434,609,382,-143,-545,981
3590324979,-1884,398,442,-69,-623,793
3590324980,-1768,290,237,-69,-868,835
3590324981,-1072,139,-169,-75,-919,877
3590324982,14,-116,-424,-126,-917,998
3590324983,760,-443,-361,-281,-833,975
3590324984,653,-428,-237,-270,-732,994
3590324985,1654,-300,-283,-505,-1017,1770
3590324986,1250,-595,-316,-375,-786,820
3590324987,1273,-220,-240,-173,-729,1528
3590324988,1620,-143,-91,-182,-609,1312
3590324989,1263,356,-300,-244,-413,1628
3590324990,-763,737,-351,-483,-409,985
3590324991,-1570,1262,-151,-442,-564,1479
3590324992,-1128,1785,90,-434,-651,1507
3590324993,-708,1935,113,-248,-673,1466
3590324994,-297,1738,12,-285,-619,1481
3590324995,-372,1545,-46,-158,-481,1300
3590324996,-399,898,-114,-204,-611,966
3590324997,3,118,-222,-340,-609,803
3590324998,881,-428,-195,-347,-593,1013
3590324999,998,-897,-155,-306,-495,925
3590325000,1011,-852,156,-359,-502,1029
3590325001,929,-270,389,-398,-436,902
3590325002,234,310,410,-333,-476,810
3590325003,-4,643,227,-360,-596,1059
3590325004,-141,639,-33,-313,-660,1083
3590325005,-136,288,-55,-342,-667,1077
3590325006,294,100,-190,-351,-702,1239
3590325007,236,122,-219,-310,-755,1095
3590325008,73,227,-445,-321,-730,1048
3590325009,-25,393,-583,-396,-638,1151
3590325010,-413,467,-687,-451,-666,1010
3590325011,-954,476,-405,-563,-680,989
3590325012,-817,416,349,-647,-716,1130
3590325013,967,390,1049,-552,-800,1495
3590325014,2268,412,1528,-438,-796,1372
3590325015,1638,686,1546,-406,-724,1213
3590325016,1729,822,882,-297,-800,1524
3590325017,2194,926,548,-647,-805,1553
3590325018,2564,1107,563,-736,-732,1553
3590325019,3128,1302,661,-799,-744,1649
3590325020,3650,1464,958,-753,-647,1578
3590325021,4046,1551,1305,-723,-582,1521
3590325022,3927,1805,1517,-727,-502,1402
3590325023,4145,2109,1571,-662,-466,1362
3590325024,3611,2311,1519,-598,-307,1027
3590325025,2136,2614,1345,-369,-127,945
3590325026,1311,2840,1156,-326,-99,1024
3590325027,1483,2766,1544,-423,-44,1022
3590325028,2081,2675,2801,-576,22,990
3590325029,3598,2335,4396,-696,8,1120
3590325030,5668,1765,5968,-791,3,1174
3590325031,6216,1682,7103,-697,-24,944
3590325032,5153,663,5165,-508,112,1150
3590325033,4380,85,2677,-597,145,823
3590325034,1842,1036,459,-1829,183,640
3590325035,1035,1759,339,-859,-96,1007
3590325036,1545,1529,1244,-900,-185,846
3590325037,2716,829,1913,-732,16,921
3590325038,3272,-382,2082,-568,96,1016
3590325039,3132,-3063,2755,-810,289,819
3590325040,3817,-3343,407,-1726,1479,1212
3590325041,3665,-4594,348,-563,68,850
3590325042,1931,-4372,-697,165,85,-106
3590325043,-1115,-2470,-3644,251,282,304
3590325044,-4451,395,-5494,-602,-38,258
3590325045,-5940,2360,-3776,-1830,278,730
3590325046,616,51,109,-1265,3223,3085
3590325047,6473,-2603,-968,-267,1486,1476
3590325048,6447,-1355,-437,-816,334,1337
3590325049,3881,-781,300,-1070,565,-100
3590325050,2222,-112,631,-535,785,918
3590325051,1929,88,701,-560,971,1027
3590325052,3612,-985,462,-612,845,1126
3590325053,4324,-1296,433,-624,857,901
3590325054,3331,-976,102,-550,1024,389
3590325055,503,245,37,-658,980,181
3590325056,-1767,1178,-229,-558,975,378
3590325057,-2532,1542,-630,-541,1013,811
3590325058,-1973,1176,-1081,-558,937,900
3590325059,403,561,-381,-1171,136,1683
3590325060,-411,1575,374,-841,545,892
3590325061,452,921,898,-945,588,852
3590325062,1441,268,1710,-806,461,972
3590325063,2743,-37,1767,-908,1075,1201
3590325064,4749,-498,1454,-674,1035,1332
3590325065,5817,-278,1984,-843,555,1153
3590325066,7059,-345,2304,-890,787,870
3590325067,8592,-1075,2866,-828,585,616
3590325068,8896,-717,3285,-641,822,528
3590325069,9572,-1104,2995,-327,1220,204
3590325070,8755,-1479,2836,-520,1119,-537
3590325071,5103,-250,3000,-425,1072,-792
3590325072,3638,-403,2093,-68,1679,-301
3590325073,2670,-439,1499,-324,1313,-214
3590325074,1683,-82,1436,-406,1250,-101
3590325075,1782,-299,1260,-359,1440,34
3590325076,1924,-241,1182,-398,1388,100
3590325077,2218,-261,1355,-420,1333,114
3590325078,2806,-271,1572,-427,1317,212
3590325079,3559,-85,1739,-402,1333,283
3590325080,4422,-34,1880,-306,1321,187
3590325081,4781,-51,2155,-349,1122,-138
3590325082,4511,61,2652,-371,970,-329
3590325083,4695,49,2947,-202,1053,-152
3590325084,5497,114,2956,-47,1007,2
3590325085,6368,239,3033,-96,815,-252
3590325086,6337,674,2509,351,1140,-631
3590325087,4799,288,1798,335,1262,-1707
3590325088,1549,390,732,436,1356,-1906
3590325089,-425,-17,-253,340,1306,-1291
3590325090,-1366,-49,-887,83,1153,-800
3590325091,-1312,-157,-1109,-27,1158,-591
3590325092,-1035,-535,-648,-324,1173,-620
3590325093,-1030,-167,20,-265,1165,-247
3590325094,501,-992,818,-464,918,-158
3590325095,3019,-1569,1404,-122,865,393
3590325096,5578,-1666,903,-74,1119,114
3590325097,7580,-1186,476,71,666,66
3590325098,6749,1280,1446,-491,137,-437
3590325099,7300,2436,2395,-140,158,-427
3590325100,9255,1918,2734,33,303,-607
3590325101,11345,-413,2440,95,505,-1359
3590325102,10655,-2972,2523,-299,476,-1954
3590325103,7362,-590,2142,9,567,-1429
3590325104,4862,-74,2075,-240,444,-1369
3590325105,6087,-3524,2384,84,163,-1514
3590325106,14022,-5965,2383,197,-782,67
3590325107,15404,-483,3595,-736,-1165,-1572
3590325108,15186,458,1795,588,-235,-2020
3590325109,1775,-1348,-911,919,-379,-4927
3590325110,-3445,1628,-593,-652,-486,-1480
3590325111,-5235,2174,-505,-529,-172,-1555
3590325112,-6527,763,-404,-163,-462,-1182
3590325113,-5714,1654,373,161,-461,-621
3590325114,-4442,1101,473,290,-136,-663
3590325115,-2389,480,680,-6,-206,-437
3590325116,477,-294,125,107,-81,-429
3590325117,3896,-728,-673,202,-44,-413
3590325118,1544,-832,-654,483,266,-2477
3590325119,1117,1087,-1128,53,376,-1497
3590325120,709,-58,-2393,207,526,-1110
3590325121,-76,-108,-2572,-6,262,-1321
3590325122,-2096,-265,-2742,-33,283,-1546
3590325123,-5599,-408,-2877,-85,139,-1577
3590325124,-7433,872,-1667,-604,-45,-730
3590325125,-4923,2492,-2307,54,683,-662
3590325126,-4332,1797,-2558,-83,338,-824
3590325127,-3973,1262,-1852,-364,311,-1119
3590325128,-267,-253,-1488,377,1364,-728
3590325129,326,-2492,488,130,938,-1470
3590325130,1528,-4451,-440,531,885,-1218
3590325131,-747,-941,-1158,-512,652,-1508
3590325132,-1254,-338,-756,290,776,-1064
3590325133,-797,-1877,-2860,1882,1652,-1470
3590325134,-1189,-1775,-1168,395,1154,-1795
3590325135,-1650,-1156,-1948,-134,580,-1640
3590325136,-2573,-1479,-618,-791,503,-1703
3590325137,-1101,-1915,-2204,597,1806,-1082
3590325138,-1198,-1133,-672,45,774,-1394
3590325139,-918,-1246,1054,-1532,470,-1700
3590325140,-341,72,-18,442,1248,-818
3590325141,-919,1577,65,985,1250,-1351
3590325142,-974,1990,836,-305,659,-1008
3590325143,-814,2212,258,220,1101,-815
3590325144,-1620,3258,13,516,1050,-827
3590325145,-1286,2863,-469,783,1096,-826
3590325146,-2698,1074,2398,-1497,-259,-1945
3590325147,-747,-813,741,-289,1303,-822
3590325148,-591,-820,2498,-928,265,-1110
3590325149,3441,582,1811,325,249,323
3590325150,6301,876,2708,-130,-136,-384
3590325151,2217,830,1167,1504,1172,-4238
3590325152,1324,556,1074,-207,514,-1424
3590325153,1865,2184,1261,-211,-74,-591
3590325154,3074,4239,630,198,199,-1050
3590325155,3421,5023,467,487,135,-1158
3590325156,3064,5151,953,561,73,-833
3590325157,2752,3365,1548,404,-42,-1262
3590325158,4978,2630,1470,1459,347,-941
3590325159,4202,1323,604,775,169,-1872
3590325160,1398,-1254,48,493,388,-1787
3590325161,191,-1142,23,667,196,-1115
3590325162,1556,-541,308,5,-57,-911
3590325163,904,1441,-25,349,466,-1566
3590325164,-2419,1557,-173,-35,200,-1945
3590325165,-2500,1901,-924,221,222,-937
3590325166,-2672,2104,-143,-63,-242,-902
3590325167,-2465,3141,-464,301,91,-724
3590325168,-4162,3033,-1139,336,202,-1350
3590325169,-5440,3046,-1537,267,-136,-888
3590325170,2785,3284,1589,141,-265,711
3590325171,7348,2768,1438,1308,477,-455
3590325172,3542,-2075,563,2563,1781,-5405
3590325173,-3494,-6839,-1256,1791,1113,-2588
3590325174,-3211,-4339,-2411,1546,542,39
3590325175,-1123,-2509,-1614,669,464,-584
3590325176,-973,-2951,-2147,-38,717,-1694
3590325177,-1275,-4600,-1852,373,488,-1132
3590325178,-1590,-5402,-1769,212,669,-1042
3590325179,-373,-5909,-1141,-2,406,-472
3590325180,2645,-7487,-377,-164,180,80
3590325181,9552,-8013,13,-144,106,431
3590325182,15202,-3407,612,-88,-143,361
3590325183,-1837,-1263,-120,880,1149,-16255
3590325184,-5007,2775,-600,42,267,-679
3590325185,-7513,6339,25,-228,-167,-167
3590325186,-257,4653,2787,136,1,-12004
3590325187,6503,-539,1955,230,-163,-5945
3590325188,1782,-5641,-732,272,235,-5421
3590325189,709,-1516,-344,-210,46,-3127
3590325190,-462,603,-386,102,-93,-1656
3590325191,707,-477,69,-12,45,-881
3590325192,173,-172,73,41,34,-1490
3590325193,81,-71,62,-12,16,-1405
3590325194,44,-51,45,-17,13,-1395
3590325195,30,-48,47,-22,8,-1397
3590325196,23,-45,46,-21,6,-1395
3590325197,19,-46,70,-9,25,-1402
3590325198,20,-39,48,-21,9,-1403
3590325199,26,-43,45,-19,6,-1401
3590325200,25,-43,41,-21,11,-1398
3590325201,22,-42,42,-17,9,-1403
3590325202,22,-46,-34,-29,19,-1408
3590325203,4,-52,288,-230,-74,-1413
3590325204,18,-49,415,-5,-34,-1373
3590325205,-13,-50,155,119,54,-1422
3590325206,12,-43,22,5,17,-1411
3590325207,18,-44,6,-18,13,-1404
3590325208,17,-47,32,-30,6,-1403
3590325209,20,-47,39,-23,6,-1410
3590325210,25,-44,36,-20,8,-1409
3590325211,22,-46,39,-24,10,-1407
3590325212,18,-45,37,-18,8,-1407
3590325213,16,-43,38,-14,8,-1402
3590325214,22,-46,42,-16,9,-1402
3590325215,20,-45,43,-20,6,-1405
3590325216,25,-46,34,-19,10,-1409
3590325217,22,-50,35,-19,6,-1409
3590325218,19,-50,34,-20,8,-1402
3590325219,19,-48,40,-21,8,-1405
3590325220,19,-46,37,-19,9,-1403
3590325221,19,-49,38,-23,12,-1406
3590325222,20,-46,41,-21,8,-1405
3590325223,22,-47,41,-25,10,-1407
3590325224,17,-48,39,-22,6,-1405
3590325225,21,-45,38,-21,8,-1406
3590325226,18,-44,40,-21,7,-1404
3590325227,21,-42,39,-23,7,-1406
3590325228,24,-46,44,-24,8,-1410
3590325229,21,-46,43,-20,7,-1402
3590325230,25,-46,50,-21,9,-1402
3590325231,19,-44,46,-20,5,-1401
3590325232,23,-47,43,-23,8,-1405
3590325233,25,-44,41,-18,8,-1400
3590325234,21,-45,40,-16,8,-1403
3590325235,21,-46,41,-13,7,-1408
3590325236,23,-44,37,-16,11,-1402
3590325237,19,-43,38,-14,7,-1400
3590325238,23,-44,38,-19,7,-1405
3590325239,19,-44,37,-20,7,-1407
3590325240,20,-46,41,-23,6,-1404
3590325241,14,-47,28,-15,8,-1406
3590325242,22,-52,34,-19,6,-1403
3590325243,23,-50,-38,29,33,-1407
3590325244,19,-50,-43,129,0,-1404
3590325245,20,-53,17,-228,-2,-1405
3590325246,19,-54,13,-29,5,-1407
3590325247,15,-48,29,-25,6,-1405
3590325248,11,-50,3,-53,12,-1404
3590325249,20,-49,6,3,9,-1397
3590325250,18,-49,-31,-32,1,-1404
3590325251,17,-53,20,-21,6,-1401
3590325252,15,-51,39,-21,6,-1405
3590325253,22,-49,43,-19,7,-1404
3590325254,18,-51,44,-19,8,-1406
3590325255,16,-48,43,-19,5,-1405
3590325256,18,-50,39,-22,5,-1404
3590325257,17,-50,39,-21,6,-1404
3590325258,18,-52,41,-20,6,-1402
3590325259,19,-46,40,-23,6,-1398
3590325260,21,-45,41,-23,9,-1401
3590325261,21,-51,38,-22,6,-1403
3590325262,19,-53,42,-24,5,-1403
3590325263,18,-48,37,-22,5,-1405
3590325264,19,-50,35,-22,8,-1406
3590325265,16,-51,35,-23,7,-1400
3590325266,18,-53,31,-23,6,-1403
3590325267,17,-53,21,-26,9,-1402
3590325268,16,-51,17,-42,6,-1407
3590325269,20,-47,32,-32,5,-1407
3590325270,15,-51,31,-25,6,-1397
3590325271,15,-51,36,-24,6,-1398
3590325272,18,-54,25,1,13,-1402
3590325273,22,-53,-2,-66,8,-1404
3590325274,25,-58,15,-115,4,-1397
3590325275,48,-86,-70,-243,1,-1397
3590325276,-23,-115,-438,-485,125,-1408
3590325277,1012,-909,-5105,-2251,1512,-1388
3590325278,1293,1233,4211,1310,-180,-747
3590325279,-2346,2584,12706,2873,-2343,-2914
3590325280,-369,-2711,-3093,5102,3323,-695
3590325281,2035,-2511,-1967,985,-48,-8913
3590325282,45,18,-1984,-86,-75,-2444
3590325283,-1112,575,-145,-1593,-1101,-1272
3590325284,-172,-65,-378,-950,-173,-981
3590325285,1603,-361,230,-594,-215,-859
3590325286,-207,542,491,-30,188,-1626
3590325287,-5,160,-320,416,365,-1236
3590325288,18,5,-73,294,259,-1414
3590325289,125,-38,-130,23,86,-1383
3590325290,-65,-30,-96,-58,-7,-1452
3590325291,24,-45,-26,-14,7,-1387
3590325292,56,-49,-4,-53,-6,-1409
3590325293,-5,-40,-152,16,58,-1498
3590325294,17,-47,-256,21,32,-1422
3590325295,14,-40,-328,-30,7,-1420
3590325296,26,-45,-303,-71,-23,-1408
3590325297,19,-45,-296,-69,27,-1419
3590325298,117,-119,101,-171,-150,-1406
3590325299,78,-63,-99,76,82,-1341
3590325300,93,-46,43,136,134,-1363
3590325301,38,-44,45,10,42,-1424
3590325302,-30,-35,104,-44,-5,-1446
3590325303,-17,-45,78,-14,24,-1415
3590325304,-62,-27,67,-11,23,-1425
3590325305,4,-46,91,-33,6,-1403
3590325306,15,-48,71,-32,7,-1410
3590325307,18,-49,53,-26,10,-1412
3590325308,75,-48,41,-30,9,-1395
3590325309,45,-45,41,-26,5,-1430
3590325310,11,-42,40,-31,7,-1414
3590325311,-1,-41,45,-29,9,-1419
3590325312,-24,-42,89,-48,-11,-1417
3590325313,2,-43,145,-33,4,-1412
3590325314,12,-40,145,-27,10,-1407
3590325315,7,-44,128,-23,9,-1407
3590325316,19,-51,534,-225,-219,-1393
3590325317,22,-45,339,-56,13,-1391
3590325318,-7,-4,278,-249,-120,-1397
3590325319,-35,-13,246,-54,-84,-1396
3590325320,62,-77,136,199,110,-1458
3590325321,40,-64,-153,166,246,-1393
3590325322,32,-56,-3,-69,16,-1406
3590325323,22,-49,6,-31,11,-1413
3590325324,19,-47,9,-31,7,-1415
3590325325,18,-47,21,-33,6,-1408
3590325326,19,-49,33,-30,8,-1414
3590325327,12,-44,43,-35,6,-1409
3590325328,13,-42,109,-53,-8,-1406
3590325329,23,-49,246,-56,-29,-1406
3590325330,22,-45,212,5,39,-1419
3590325331,11,-45,307,-55,-24,-1421
3590325332,12,-48,315,-11,20,-1406
3590325333,16,-43,263,-30,11,-1404
3590325334,10,-42,233,-46,1,-1408
3590325335,10,-48,304,-44,-12,-1412
3590325336,5,-49,320,-71,-5,-1407
3590325337,64,-31,160,-75,-2,-1379
3590325338,51,-52,-41,25,46,-1395
3590325339,38,-48,-22,-12,31,-1409
3590325340,26,-53,-17,0,16,-1407
3590325341,47,-54,-43,13,22,-1397
3590325342,121,-56,-83,-4,11,-1396
3590325343,48,-41,-113,-1,7,-1422
3590325344,29,-48,-143,22,-11,-1406
3590325345,26,-47,-223,17,-7,-1409
3590325346,15,-39,-247,-47,-22,-1413
3590325347,24,-21,-284,-22,45,-1410
3590325348,6,-48,-241,5,-2,-1413
3590325349,21,-42,-282,-149,49,-1410
3590325350,25,-55,-87,-166,-3,-1407
3590325351,23,-53,-77,-21,24,-1405
3590325352,21,-48,-59,-36,5,-1413
3590325353,17,-48,-39,-26,9,-1415
3590325354,19,-41,-63,-31,5,-1410
3590325355,24,-55,-4,-54,1,-1408
3590325356,19,-46,5,-16,12,-1412
3590325357,19,-46,31,-26,7,-1411
3590325358,20,-47,33,-26,6,-1415
3590325359,19,-43,34,-24,6,-1407
3590325360,16,-46,35,-34,5,-1407
3590325361,17,-48,34,-24,8,-1408
3590325362,17,-46,30,-28,5,-1414
3590325363,12,-43,24,-7,7,-1408
3590325364,8,-35,18,1,6,-1412
3590325365,-5,-15,10,21,2,-1414
3590325366,-3,-26,-32,22,8,-1427
3590325367,21,-39,-46,0,2,-1412
3590325368,35,-42,-85,2,7,-1402
3590325369,29,-44,-129,-158,31,-1407
3590325370,19,-50,1,-179,13,-1408
3590325371,21,-47,37,-40,9,-1409
3590325372,18,-51,49,-28,7,-1405
3590325373,18,-47,60,-36,5,-1406
3590325374,15,-46,58,-35,7,-1410
3590325375,17,-43,57,-20,11,-1406
3590325376,15,-49,46,-27,12,-1408
3590325377,19,-46,41,-30,9,-1407
3590325378,19,-46,30,-23,9,-1411
3590325379,19,-45,21,-20,10,-1407
3590325380,19,-46,2,-20,8,-1409
3590325381,20,-47,10,-35,3,-1408
3590325382,22,-49,-14,2,4,-1409
3590325383,15,-46,-11,31,5,-1410
3590325384,15,-43,-81,50,15,-1412
3590325385,15,-25,-135,24,10,-1413
3590325386,32,-27,-82,-55,-15,-1408
3590325387,9,-30,-83,-153,34,-1411
3590325388,14,-41,5,-121,14,-1402
3590325389,15,-45,42,-34,7,-1402
3590325390,14,-43,1,7,18,-1406
3590325391,10,-37,37,-3,6,-1405
3590325392,4,-29,73,-11,-20,-1408
3590325393,0,-22,6,3,30,-1414
3590325394,11,-35,-1,-59,6,-1401
3590325395,12,-36,-10,-59,21,-1405
3590325396,10,-44,-5,-57,9,-1404
3590325397,15,-54,17,-66,8,-1401
3590325398,21,-50,22,-26,7,-1409
3590325399,19,-48,13,-25,10,-1404
3590325400,20,-41,-18,-20,10,-1400
3590325401,17,-46,10,-36,4,-1406
3590325402,18,-43,3,-14,11,-1407
3590325403,24,-47,28,-40,5,-1403
3590325404,19,-44,30,-28,5,-1403
3590325405,16,-44,33,-27,8,-1406
3590325406,15,-43,38,-28,6,-1401
3590325407,18,-45,38,-27,6,-1400
3590325408,21,-46,40,-21,7,-1406
3590325409,20,-48,35,-24,7,-1405
3590325410,17,-44,38,-21,8,-1404
3590325411,13,-50,38,-27,8,-1406
3590325412,19,-44,35,-24,10,-1405
3590325413,18,-45,37,-22,10,-1407
3590325414,22,-41,35,-25,7,-1403
3590325415,18,-42,36,-26,5,-1407
3590325416,20,-45,36,-24,6,-1405
3590325417,16,-45,45,-20,5,-1403
3590325418,15,-34,210,-27,-35,-1400
3590325419,17,-43,76,13,45,-1404
3590325420,19,-38,127,-47,-25,-1399
3590325421,14,-46,104,-40,2,-1406
3590325422,19,-42,131,-40,-12,-1399
3590325423,15,-44,130,-54,15,-1407
3590325424,12,-35,102,-53,-10,-1404
3590325425,11,-47,72,-4,46,-1403
3590325426,14,-46,105,-48,-10,-1403
3590325427,17,-49,97,-14,12,-1403
3590325428,21,-42,48,-25,14,-1403
3590325429,13,-46,43,-26,7,-1408
3590325430,19,-48,37,-24,9,-1399
3590325431,19,-45,35,-19,8,-1404
3590325432,17,-43,40,-26,8,-1402
3590325433,11,-45,38,-25,7,-1408
3590325434,9,-44,38,-33,8,-1405
3590325435,3,-40,97,-63,-11,-1404
3590325436,19,-58,397,-127,-90,-1378
3590325437,-14,-54,232,84,147,-1418
3590325438,-36,-33,421,-186,-107,-1410
3590325439,38,-42,535,-17,3,-1386
3590325440,53,-68,1198,-162,-283,-1396
3590325441,93,-54,-647,756,697,-1417
3590325442,-244,166,344,-408,-580,-1433
3590325443,435,-154,-580,371,190,-1207
3590325444,-42,69,-303,-156,-126,-1397
3590325445,258,-145,-674,58,-58,-1285
3590325446,34,-42,-544,-34,-44,-1372
3590325447,-6,-26,-584,10,-136,-1412
3590325448,112,-89,-931,102,-141,-1301
3590325449,80,-119,-1047,-39,5,-1537
3590325450,80,-23,-1049,-89,-5,-1399
3590325451,32,5,-992,1,-81,-1417
3590325452,-53,-52,-1223,39,-191,-1481
3590325453,-2,-45,-1423,39,-174,-1369
3590325454,127,-80,-1638,52,-116,-1382
3590325455,-48,-62,-1711,-24,-79,-1509
3590325456,107,-93,-1896,-14,85,-1423
3590325457,48,-72,-1600,-650,143,-1384
3590325458,22,-98,-884,-589,288,-1402
3590325459,35,-89,-443,2,357,-1398
3590325460,22,-44,-239,170,490,-1410
3590325461,17,-43,76,-67,121,-1414
3590325462,13,-45,120,-35,6,-1410
3590325463,14,-43,153,-26,7,-1417
3590325464,16,-38,164,11,27,-1413
3590325465,17,-26,79,-19,15,-1414
3590325466,17,-38,67,-77,-5,-1417
3590325467,18,-41,62,-29,4,-1415
3590325468,20,-46,73,-22,12,-1416
3590325469,18,-46,63,-26,6,-1418
3590325470,15,-45,58,-27,6,-1416
3590325471,18,-43,60,-28,5,-1409
3590325472,17,-48,59,-25,7,-1412
3590325473,18,-43,57,-28,7,-1414
3590325474,17,-48,59,-25,6,-1410
3590325475,19,-45,56,-22,7,-1415
3590325476,16,-48,47,-24,8,-1416
3590325477,22,-46,49,-26,6,-1411
3590325478,18,-49,48,-24,5,-1410
3590325479,19,-46,46,-25,5,-1409
3590325480,21,-46,46,-27,5,-1417
3590325481,18,-45,48,-24,6,-1409
3590325482,16,-48,56,-31,6,-1411
3590325483,20,-43,56,-26,8,-1415
3590325484,19,-46,55,-22,6,-1413
3590325485,16,-41,51,-31,7,-1408
3590325486,18,-49,47,-27,7,-1411
3590325487,23,-44,49,-25,6,-1412
3590325488,17,-47,44,-27,8,-1413
3590325489,22,-42,44,-28,9,-1404
3590325490,15,-43,43,-25,7,-1409
3590325491,17,-43,45,-24,10,-1412
3590325492,17,-47,47,-31,6,-1409
3590325493,16,-44,42,-25,5,-1408
3590325494,20,-45,46,-28,8,-1413
3590325495,18,-40,43,-23,7,-1414
3590325496,20,-45,44,-28,6,-1409
3590325497,22,-45,45,-27,5,-1405
3590325498,23,-46,44,-27,5,-1408
3590325499,19,-44,47,-28,6,-1405
3590325500,19,-47,43,-26,6,-1410
3590325501,22,-46,42,-25,6,-1408
3590325502,17,-46,37,-25,7,-1410
3590325503,21,-43,37,-27,5,-1403
3590325504,22,-47,43,-27,5,-1406
3590325505,19,-45,44,-26,6,-1405
3590325506,19,-48,38,-25,8,-1407
3590325507,19,-45,40,-26,6,-1406
3590325508,18,-40,42,-29,5,-1408
3590325509,18,-43,42,-22,7,-1410
3590325510,17,-49,46,-27,7,-1408
3590325511,19,-48,42,-24,8,-1404
3590325512,24,-49,41,-29,7,-1408
3590325513,21,-44,42,-29,5,-1407
3590325514,19,-46,41,-26,9,-1411
3590325515,22,-45,39,-25,6,-1405
3590325516,19,-45,36,-29,5,-1410
3590325517,19,-47,38,-25,5,-1406
3590325518,19,-46,39,-25,7,-1407
3590325519,16,-45,39,-29,9,-1402
3590325520,17,-43,39,-30,6,-1405
3590325521,19,-42,38,-31,8,-1412
3590325522,20,-42,39,-28,6,-1402
3590325523,18,-43,40,-24,7,-1405
3590325524,18,-44,39,-32,8,-1406
3590325525,16,-46,43,-27,8,-1405
3590325526,19,-47,40,-25,6,-1407
3590325527,18,-46,37,-25,8,-1405
3590325528,21,-42,40,-26,8,-1402
3590325529,16,-45,40,-27,6,-1405
3590325530,14,-43,43,-30,5,-1403
3590325531,18,-45,40,-22,5,-1404
3590325532,20,-44,42,-24,4,-1404
3590325533,17,-44,42,-27,6,-1405
3590325534,16,-39,39,-25,7,-1398
3590325535,14,-43,38,-24,7,-1404
3590325536,18,-41,38,-22,9,-1406
3590325537,19,-48,36,-26,7,-1402
3590325538,21,-45,37,-25,5,-1403
3590325539,18,-50,39,-25,7,-1406
3590325540,19,-43,36,-34,7,-1398
3590325541,18,-44,38,-29,6,-1404
3590325542,23,-43,39,-29,7,-1406
3590325543,16,-46,37,-30,6,-1402
3590325544,19,-45,39,-29,6,-1404
3590325545,18,-43,40,-27,7,-1402
3590325546,19,-44,39,-24,8,-1399
3590325547,18,-49,44,-26,5,-1405
3590325548,20,-46,41,-27,6,-1406
3590325549,17,-49,38,-25,7,-1401
3590325550,22,-45,39,-30,9,-1397
3590325551,20,-46,40,-27,8,-1406
3590325552,24,-42,41,-29,8,-1402
3590325553,17,-46,38,-28,7,-1397
3590325554,19,-43,38,-25,7,-1399
3590325555,17,-48,35,-30,8,-1402
3590325556,21,-47,38,-31,5,-1403
3590325557,18,-44,36,-26,6,-1409
3590325558,20,-46,36,-20,8,-1403
3590325559,17,-46,37,-28,5,-1404
3590325560,20,-45,35,-25,8,-1406
3590325561,21,-50,37,-27,7,-1403
3590325562,18,-45,36,-24,8,-1401
3590325563,21,-47,34,-15,6,-1404
3590325564,26,-46,-1,39,5,-1400
3590325565,8,-41,-56,15,5,-1404
3590325566,14,-44,-46,-102,4,-1402
3590325567,18,-43,15,-79,29,-1399
3590325568,19,-44,31,-31,6,-1402
3590325569,19,-43,37,-29,7,-1402
3590325570,18,-46,37,-30,10,-1402
3590325571,19,-46,39,-27,7,-1402
3590325572,18,-42,39,-27,8,-1405
3590325573,16,-43,44,-27,7,-1406
3590325574,15,-46,35,-26,7,-1398
3590325575,19,-48,38,-27,7,-1395
3590325576,16,-43,36,-23,8,-1401
3590325577,16,-47,37,-23,8,-1402
3590325578,19,-49,38,-23,7,-1398
3590325579,17,-47,39,-27,5,-1398
3590325580,17,-46,35,-26,7,-1398
3590325581,21,-44,38,-25,9,-1399
3590325582,18,-47,40,-27,8,-1399
3590325583,24,-47,41,-25,6,-1401
3590325584,18,-45,41,-24,5,-1404
3590325585,17,-44,41,-28,6,-1400
3590325586,19,-43,38,-26,8,-1394
3590325587,21,-44,39,-33,7,-1398
3590325588,23,-49,40,-26,8,-1399
3590325589,22,-45,33,-32,7,-1399
3590325590,18,-46,37,-27,9,-1399
3590325591,17,-47,34,-31,5,-1400
3590325592,17,-45,38,-26,6,-1394
3590325593,17,-44,42,-25,6,-1400
3590325594,16,-47,39,-27,8,-1397
3590325595,16,-44,38,-30,7,-1397
3590325596,18,-47,37,-25,4,-1403
3590325597,22,-41,39,-28,7,-1404
3590325598,21,-43,36,-22,7,-1393
3590325599,23,-41,38,-25,8,-1396
3590325600,18,-49,39,-27,7,-1400
3590325601,19,-47,38,-26,6,-1398
3590325602,17,-44,43,-26,7,-1396
3590325603,22,-44,41,-27,8,-1397
3590325604,19,-48,41,-24,7,-1404
3590325605,18,-43,41,-30,7,-1402
3590325606,21,-51,40,-28,7,-1392
3590325607,22,-49,40,-23,7,-1393
3590325608,20,-48,39,-26,8,-1398
3590325609,20,-47,39,-23,6,-1395
3590325610,21,-49,36,-27,7,-1411
3590325611,24,-50,40,-28,5,-1398
3590325612,25,-52,42,-29,5,-1401
3590325613,25,-50,39,-29,7,-1393
3590325614,18,-50,38,-27,5,-1396
3590325615,22,-42,39,-27,7,-1396
3590325616,19,-47,41,-29,6,-1397
3590325617,17,-44,42,-27,7,-1402
3590325618,17,-47,39,-26,5,-1401
3590325619,16,-40,40,-26,8,-1392
3590325620,19,-44,38,-24,8,-1399
3590325621,23,-42,34,-23,8,-1395
3590325622,18,-49,34,-29,4,-1398
3590325623,22,-47,36,-24,6,-1398
3590325624,16,-46,40,-27,6,-1397
3590325625,17,-45,35,-27,8,-1396
3590325626,20,-47,36,-28,6,-1396
3590325627,23,-45,37,-26,8,-1394
3590325628,20,-47,38,-25,9,-1395
3590325629,20,-47,40,-26,8,-1399
3590325630,19,-48,41,-26,6,-1398
3590325631,22,-46,39,-30,10,-1395
3590325632,19,-42,36,-29,6,-1395
3590325633,17,-44,40,-24,10,-1398
3590325634,14,-49,36,-25,8,-1395
3590325635,16,-45,35,-27,7,-1396
3590325636,17,-45,40,-30,9,-1398
3590325637,13,-48,41,-27,8,-1398
3590325638,19,-46,38,-30,8,-1393
3590325639,21,-44,38,-24,7,-1396
3590325640,22,-46,38,-32,6,-1396
3590325641,21,-44,38,-25,7,-1395
3590325642,20,-44,38,-27,6,-1393
3590325643,26,-48,39,-26,8,-1393
3590325644,18,-47,37,-24,6,-1397
3590325645,18,-43,37,-26,6,-1397
3590325646,25,-41,39,-28,7,-1397
3590325647,22,-45,39,-26,6,-1395
3590325648,23,-43,36,-26,7,-1397
3590325649,16,-46,39,-30,6,-1390
3590325650,21,-44,35,-28,8,-1394
3590325651,15,-47,38,-30,6,-1400
3590325652,21,-46,40,-25,6,-1397
3590325653,20,-43,41,-24,8,-1397
3590325654,19,-45,38,-27,5,-1396
3590325655,18,-44,37,-26,8,-1396
3590325656,16,-43,35,-27,8,-1394
3590325657,15,-43,43,-28,6,-1398
3590325658,20,-45,39,-28,9,-1396
3590325659,23,-47,39,-27,7,-1393
3590325660,18,-45,41,-23,10,-1398
3590325661,17,-46,40,-31,7,-1397
3590325662,21,-43,38,-27,7,-1400
3590325663,18,-47,37,-27,6,-1396
3590325664,20,-45,34,-27,7,-1392
3590325665,17,-48,35,-30,6,-1394
3590325666,21,-46,38,-23,9,-1398
3590325667,22,-49,44,-29,6,-1393
3590325668,21,-45,41,-24,6,-1397
3590325669,17,-49,38,-24,7,-1398
3590325670,15,-45,37,-26,7,-1392
3590325671,18,-47,36,-26,9,-1396
3590325672,18,-44,34,-22,6,-1393
3590325673,18,-48,33,-29,7,-1389
3590325674,21,-46,37,-25,9,-1389
3590325675,23,-44,37,-25,5,-1393
3590325676,21,-45,37,-28,9,-1395
3590325677,24,-47,34,-29,11,-1395
3590325678,23,-46,36,-25,8,-1393
3590325679,19,-46,36,-19,6,-1395
3590325680,18,-42,35,-22,9,-1392
3590325681,16,-45,40,-26,7,-1396
3590325682,17,-44,39,-21,7,-1400
3590325683,15,-45,40,-26,6,-1401
3590325684,20,-40,39,-23,6,-1396
3590325685,22,-41,39,-26,8,-1397
3590325686,18,-46,38,-28,7,-1399
3590325687,16,-50,39,-24,6,-1397
3590325688,16,-46,35,-32,8,-1391
3590325689,12,-43,37,-27,7,-1393
3590325690,18,-42,35,-25,10,-1391
3590325691,19,-45,37,-27,7,-1386
3590325692,18,-42,38,-18,13,-1394
3590325693,17,-45,39,-24,6,-1404
3590325694,19,-46,36,-23,9,-1404
3590325695,24,-47,39,-21,9,-1396
3590325696,22,-43,37,-24,9,-1397
3590325697,22,-49,35,-22,5,-1403
3590325698,19,-47,40,-31,6,-1395
3590325699,17,-49,42,-29,4,-1393
3590325700,15,-46,39,-31,9,-1393
3590325701,17,-44,37,-33,4,-1392
3590325702,18,-47,40,-30,6,-1394
3590325703,16,-42,38,-29,6,-1393
3590325704,14,-48,39,-34,5,-1394
3590325705,18,-44,41,-29,5,-1397
3590325706,20,-46,37,-28,7,-1396
3590325707,22,-45,38,-31,7,-1397
3590325708,18,-42,40,-28,7,-1399
3590325709,17,-46,37,-31,6,-1396
3590325710,17,-45,33,-30,5,-1396
3590325711,21,-48,39,-30,5,-1398
3590325712,16,-50,37,-28,7,-1393
3590325713,16,-41,37,-26,5,-1396
3590325714,17,-43,40,-23,6,-1394
3590325715,18,-43,36,-23,6,-1399
3590325716,17,-48,35,-23,9,-1399
3590325717,18,-49,37,-27,10,-1394
3590325718,18,-48,35,-23,8,-1390
3590325719,18,-47,35,-25,7,-1394
3590325720,15,-46,39,-32,7,-1394
3590325721,19,-46,38,-28,5,-1398
3590325722,16,-46,39,-32,6,-1393
3590325723,22,-41,39,-32,5,-1389
3590325724,19,-47,37,-34,6,-1391
3590325725,20,-44,39,-33,9,-1394
3590325726,18,-51,41,-33,11,-1394
3590325727,15,-44,42,-27,7,-1396
3590325728,15,-44,39,-31,6,-1393
3590325729,20,-44,35,-24,9,-1391
3590325730,16,-48,37,-21,8,-1395
3590325731,20,-45,37,-22,7,-1395
3590325732,21,-48,39,-24,5,-1397
3590325733,19,-43,38,-25,9,-1392
3590325734,18,-49,36,-29,7,-1394
3590325735,21,-43,32,-25,5,-1391
3590325736,19,-47,33,-24,8,-1393
3590325737,19,-42,36,-26,6,-1393
3590325738,15,-48,37,-27,7,-1398
3590325739,18,-46,38,-25,5,-1395
3590325740,19,-50,38,-26,4,-1396
3590325741,18,-47,39,-31,9,-1390
3590325742,17,-46,38,-29,5,-1390
3590325743,17,-45,41,-23,7,-1394
3590325744,20,-51,36,-28,8,-1394
3590325745,22,-44,36,-30,7,-1394
3590325746,23,-49,42,-28,6,-1392
3590325747,23,-43,39,-30,5,-1390
3590325748,21,-47,35,-30,6,-1392
3590325749,17,-43,39,-30,6,-1393
3590325750,19,-48,37,-33,5,-1396
3590325751,22,-41,38,-30,6,-1396
3590325752,17,-47,38,-28,6,-1391
3590325753,20,-44,38,-27,7,-1390
3590325754,20,-44,37,-21,5,-1389
3590325755,20,-44,35,-22,5,-1389
3590325756,18,-47,38,-26,7,-1392
3590325757,24,-46,40,-22,9,-1389
3590325758,23,-43,39,-21,7,-1401
3590325759,23,-47,37,-29,7,-1395
3590325760,17,-49,37,-28,6,-1394
3590325761,19,-48,43,-28,8,-1387
3590325762,17,-48,40,-29,8,-1390
3590325763,19,-47,39,-30,7,-1397
3590325764,23,-47,38,-31,6,-1392
3590325765,21,-46,37,-31,7,-1395
3590325766,17,-49,38,-23,6,-1390
3590325767,16,-49,36,-26,6,-1394
3590325768,21,-47,36,-27,6,-1395
3590325769,21,-50,37,-29,5,-1392
3590325770,17,-47,39,-25,6,-1394
3590325771,24,-48,41,-26,5,-1395
3590325772,22,-46,40,-31,8,-1394
3590325773,22,-46,40,-26,8,-1392
3590325774,24,-47,38,-32,7,-1391
3590325775,20,-45,41,-28,8,-1389
3590325776,21,-46,39,-30,7,-1392
3590325777,22,-49,37,-28,9,-1388
3590325778,23,-50,36,-27,7,-1393
3590325779,21,-43,41,-25,5,-1394
3590325780,18,-44,40,-20,7,-1390
3590325781,20,-45,35,-24,8,-1391
3590325782,19,-47,37,-23,10,-1394
3590325783,24,-49,37,-27,9,-1391
3590325784,19,-46,36,-24,5,-1393
3590325785,16,-44,40,-24,6,-1392
3590325786,20,-43,41,-30,7,-1390
3590325787,19,-48,37,-27,7,-1396
3590325788,18,-39,37,-29,7,-1390
3590325789,19,-43,35,-25,6,-1391
3590325790,23,-42,36,-29,7,-1389
3590325791,24,-47,39,-26,9,-1392
3590325792,22,-46,40,-26,9,-1394
3590325793,22,-45,39,-19,9,-1390
3590325794,21,-42,36,-26,8,-1391
3590325795,18,-43,37,-25,6,-1391
3590325796,17,-40,37,-25,9,-1391
3590325797,16,-45,37,-29,6,-1392
3590325798,18,-44,39,-28,8,-1393
3590325799,21,-50,33,-28,6,-1390
3590325800,17,-43,40,-23,6,-1390
3590325801,18,-50,40,-22,6,-1394
3590325802,22,-51,40,-29,9,-1390
3590325803,18,-51,36,-28,7,-1390
3590325804,19,-46,39,-28,9,-1394
3590325805,25,-48,34,-31,8,-1395
3590325806,23,-40,37,-24,8,-1393
3590325807,15,-44,38,-26,9,-1391
3590325808,20,-46,37,-27,5,-1389
3590325809,20,-47,37,-26,6,-1393
3590325810,18,-45,37,-26,6,-1391
3590325811,24,-46,41,-28,6,-1393
3590325812,24,-43,41,-25,5,-1390
3590325813,22,-50,37,-29,6,-1392
3590325814,24,-45,37,-28,10,-1391
3590325815,24,-48,39,-27,9,-1391
3590325816,23,-46,34,-27,7,-1389
3590325817,18,-45,38,-30,5,-1388
3590325818,22,-44,38,-26,9,-1396
3590325819,22,-49,38,-25,9,-1396
3590325820,22,-47,39,-25,5,-1395
3590325821,24,-52,42,-25,5,-1393
3590325822,17,-47,38,-26,7,-1388
3590325823,17,-47,38,-29,8,-1395
3590325824,19,-46,40,-29,6,-1391
3590325825,24,-46,37,-28,6,-1393
3590325826,22,-50,37,-32,5,-1392
3590325827,21,-48,37,-32,6,-1394
3590325828,20,-48,36,-30,6,-1391
3590325829,22,-46,38,-27,7,-1392
3590325830,19,-49,41,-35,6,-1393
3590325831,19,-44,43,-24,6,-1394
3590325832,23,-46,36,-24,7,-1390
3590325833,19,-41,42,-28,6,-1395
3590325834,21,-44,36,-27,7,-1390
3590325835,20,-46,39,-28,7,-1399
3590325836,19,-48,39,-23,6,-1392
3590325837,20,-45,37,-22,7,-1395
3590325838,25,-46,37,-23,11,-1394
3590325839,26,-43,39,-26,7,-1399
3590325840,22,-46,38,-24,8,-1392
3590325841,24,-44,39,-25,6,-1386
3590325842,18,-46,39,-30,7,-1385
3590325843,21,-47,37,-27,8,-1393
3590325844,20,-48,38,-22,6,-1391
3590325845,20,-45,35,-24,6,-1396
3590325846,18,-47,36,-21,8,-1395
3590325847,21,-48,35,-26,7,-1395
3590325848,18,-52,39,-26,7,-1398
3590325849,19,-45,37,-27,7,-1389
3590325850,16,-51,35,-32,6,-1389
3590325851,19,-46,38,-27,6,-1392
3590325852,24,-47,36,-24,8,-1394
3590325853,19,-47,39,-31,8,-1395
3590325854,17,-50,39,-24,6,-1396
3590325855,20,-45,38,-28,8,-1390
3590325856,21,-45,38,-26,5,-1386
3590325857,22,-44,40,-24,6,-1394
3590325858,19,-48,34,-22,7,-1392
3590325859,19,-44,35,-28,9,-1389
3590325860,20,-49,38,-23,7,-1396
3590325861,21,-45,42,-28,9,-1396
3590325862,17,-44,38,-25,5,-1389
3590325863,23,-39,36,-27,6,-1389
3590325864,18,-44,40,-29,5,-1389
3590325865,20,-45,38,-26,7,-1392
3590325866,19,-46,37,-29,5,-1392
3590325867,23,-45,36,-27,6,-1394
3590325868,17,-50,38,-26,6,-1391
3590325869,19,-47,42,-27,6,-1387
3590325870,20,-47,40,-26,6,-1393
3590325871,21,-47,40,-25,7,-1393
3590325872,19,-47,41,-25,7,-1395
3590325873,21,-43,39,-31,7,-1389
3590325874,20,-48,39,-24,7,-1388
3590325875,19,-44,38,-26,9,-1392
3590325876,17,-48,43,-25,5,-1394
3590325877,21,-47,38,-27,9,-1391
3590325878,19,-47,37,-31,6,-1388
3590325879,18,-49,39,-27,7,-1387
3590325880,18,-47,35,-30,6,-1390
3590325881,21,-47,34,-24,7,-1392
3590325882,18,-47,36,-25,7,-1392
3590325883,19,-47,38,-29,7,-1390
3590325884,18,-48,39,-30,7,-1392
3590325885,24,-48,39,-28,6,-1391
3590325886,22,-48,40,-29,6,-1389
3590325887,22,-44,39,-27,11,-1389
3590325888,16,-48,36,-28,8,-1394
3590325889,20,-47,38,-27,8,-1393
3590325890,16,-51,39,-24,5,-1394
3590325891,16,-45,37,-26,9,-1388
3590325892,20,-46,37,-29,6,-1389
3590325893,18,-49,41,-24,6,-1393
3590325894,18,-47,38,-23,7,-1395
3590325895,16,-48,36,-26,5,-1395
3590325896,13,-44,37,-21,9,-1393
3590325897,14,-47,40,-29,7,-1392
3590325898,21,-46,42,-27,6,-1389
3590325899,18,-46,40,-26,6,-1391
3590325900,18,-45,39,-26,8,-1390
3590325901,18,-45,41,-28,7,-1389
3590325902,25,-46,39,-27,6,-1389
3590325903,21,-50,34,-28,7,-1390
3590325904,17,-41,36,-26,5,-1389
3590325905,20,-46,40,-25,6,-1391
3590325906,23,-48,41,-24,6,-1395
3590325907,19,-47,41,-20,7,-1389
3590325908,18,-46,37,-29,6,-1389
3590325909,16,-48,37,-29,7,-1391
3590325910,21,-46,36,-28,10,-1393
3590325911,22,-48,36,-30,6,-1391
3590325912,25,-47,35,-28,8,-1387
3590325913,22,-50,36,-25,6,-1392
3590325914,23,-47,37,-28,6,-1388
3590325915,22,-50,37,-29,6,-1388
3590325916,24,-45,39,-23,7,-1393
3590325917,23,-49,39,-25,5,-1390
3590325918,18,-42,39,-23,6,-1391
3590325919,17,-43,36,-24,7,-1386
3590325920,20,-42,36,-22,8,-1385
3590325921,17,-48,39,-26,7,-1387
3590325922,19,-45,41,-25,7,-1392
3590325923,16,-47,44,-23,7,-1389
3590325924,23,-43,43,-27,7,-1392
3590325925,22,-50,38,-27,7,-1391
3590325926,21,-49,39,-32,6,-1385
3590325927,14,-50,40,-28,5,-1385
3590325928,18,-45,37,-29,10,-1394
3590325929,21,-48,35,-27,5,-1391
3590325930,24,-47,33,-29,5,-1391
3590325931,25,-45,34,-32,6,-1388
3590325932,30,-45,34,-28,8,-1383
3590325933,19,-49,40,-25,6,-1391
3590325934,17,-46,38,-27,7,-1385
3590325935,16,-46,37,-26,5,-1391
3590325936,20,-42,37,-27,8,-1389
3590325937,20,-45,37,-27,9,-1389
3590325938,18,-41,36,-29,8,-1392
3590325939,20,-49,38,-26,7,-1388
3590325940,22,-49,38,-26,8,-1389
3590325941,17,-47,38,-27,8,-1394
3590325942,19,-43,40,-30,7,-1396
3590325943,17,-47,38,-26,8,-1390
3590325944,15,-44,38,-25,9,-1389
3590325945,18,-44,37,-29,6,-1391
3590325946,20,-48,35,-26,5,-1385
3590325947,19,-49,38,-30,6,-1393
3590325948,20,-50,38,-26,7,-1384
3590325949,20,-51,38,-27,5,-1391
3590325950,20,-45,37,-27,5,-1389
3590325951,16,-46,39,-33,9,-1386
3590325952,17,-48,38,-28,6,-1394
3590325953,18,-46,39,-26,7,-1390
3590325954,17,-46,34,-23,10,-1390
3590325955,17,-39,35,-26,6,-1388
3590325956,20,-44,38,-25,6,-1384
3590325957,22,-42,42,-30,7,-1388
3590325958,22,-44,32,-26,8,-1392
3590325959,19,-41,36,-20,9,-1388
3590325960,22,-42,38,-22,7,-1383
3590325961,20,-48,34,-26,5,-1393
3590325962,18,-45,38,-28,8,-1388
3590325963,18,-45,42,-27,10,-1392
3590325964,20,-44,39,-31,8,-1388
3590325965,18,-44,38,-29,8,-1398
3590325966,19,-44,38,-27,8,-1386
3590325967,18,-47,35,-24,8,-1391
3590325968,18,-46,37,-26,6,-1389
3590325969,15,-44,39,-27,5,-1387
3590325970,15,-47,38,-23,7,-1388
3590325971,18,-46,36,-25,6,-1392
3590325972,21,-46,35,-25,7,-1391
3590325973,22,-44,34,-27,7,-1393
3590325974,22,-48,36,-32,7,-1387
3590325975,18,-47,40,-27,7,-1393
3590325976,21,-49,38,-29,7,-1386
3590325977,16,-42,37,-23,9,-1389
3590325978,17,-46,35,-22,8,-1397
3590325979,23,-48,37,-28,8,-1389
3590325980,19,-51,37,-23,9,-1403
3590325981,18,-46,36,-27,13,-1392
3590325982,22,-51,40,-26,9,-1390
3590325983,22,-44,38,-19,7,-1393
3590325984,18,-46,38,-22,7,-1384
3590325985,20,-43,39,-26,13,-1386
3590325986,21,-48,39,-25,8,-1391
3590325987,21,-44,40,-27,6,-1383
3590325988,16,-45,37,-25,8,-1386
3590325989,20,-42,34,-26,6,-1395
3590325990,19,-49,36,-30,5,-1392
3590325991,17,-43,35,-27,5,-1389
3590325992,20,-48,34,-25,6,-1386
3590325993,20,-45,37,-26,7,-1397
3590325994,21,-50,37,-27,6,-1388
3590325995,17,-48,42,-22,8,-1384
3590325996,17,-48,38,-29,8,-1388
3590325997,24,-47,36,-26,8,-1390
3590325998,21,-46,37,-28,9,-1389
3590325999,17,-46,35,-27,6,-1389
3590326000,16,-48,39,-26,6,-1391
3590326001,18,-45,40,-29,8,-1385
3590326002,18,-51,37,-26,9,-1394
3590326003,22,-49,37,-23,6,-1389
3590326004,19,-49,41,-26,8,-1388
3590326005,20,-47,39,-27,6,-1387
3590326006,16,-50,36,-23,8,-1393
3590326007,20,-52,37,-27,8,-1387
3590326008,21,-51,38,-27,7,-1388
3590326009,20,-47,37,-23,6,-1391
3590326010,15,-51,36,-26,6,-1389
3590326011,23,-47,41,-26,5,-1389
3590326012,21,-48,41,-27,6,-1393
3590326013,21,-49,39,-27,9,-1389
3590326014,16,-46,36,-29,5,-1390
3590326015,2,-33,-671,155,211,-1398
3590326016,-2889,1809,-1153,83,-222,-2750
3590326017,-5276,8133,-471,73,-59,-2090
3590326018,-2365,8159,-164,-18,-155,-308
3590326019,-1167,5113,-125,-27,217,-829
3590326020,-1109,872,-467,367,449,-852
3590326021,-827,-3427,-611,124,243,-649
3590326022,2840,-5796,-547,12,18,521
3590326023,5130,-8280,340,-405,434,-3678
3590326024,2145,-3032,294,378,261,-9493
3590326025,-1072,3575,41,308,8,-1805
3590326026,-3929,5843,88,-148,171,-1844
3590326027,-1611,3880,344,6,119,-366
3590326028,788,1127,436,96,122,-379
3590326029,2674,-1833,509,37,98,-517
3590326030,1495,-5279,-130,467,17,-2058
3590326031,3430,-2223,-493,104,-82,-1010
3590326032,1604,939,548,-565,328,-1178
3590326033,-473,-292,890,-975,-170,-1773
3590326034,-498,209,994,459,227,-1535
3590326035,-1111,341,828,167,69,-1816
3590326036,-479,663,715,560,164,-1388
3590326037,-369,499,583,181,132,-1377
3590326038,-289,428,587,1,113,-1361
3590326039,-399,483,558,123,139,-1416
3590326040,-505,467,440,-232,194,-1491
3590326041,-340,626,651,73,191,-1414
3590326042,-200,706,321,16,186,-1485
3590326043,-115,736,528,256,95,-1222
3590326044,233,743,506,431,71,-1299
3590326045,-304,583,434,341,11,-1588
3590326046,8,604,438,178,145,-1188
3590326047,-38,606,423,129,113,-1319
3590326048,487,786,681,-236,84,-1169
3590326049,968,1859,774,-335,-251,-1586
3590326050,2151,3299,757,-86,-128,-1269
3590326051,3110,4247,694,146,-75,-1198
3590326052,1095,4006,111,1406,231,-1605
3590326053,571,3810,-178,616,52,-1323
3590326054,360,4105,-97,467,29,-1354
3590326055,722,4423,51,511,0,-1312
3590326056,862,4900,74,698,-43,-1249
3590326057,1155,5435,63,683,-4,-1252
3590326058,1489,6065,-74,867,-2,-1121
3590326059,1607,6437,7,784,-8,-1138
3590326060,1461,6781,252,715,-224,-1154
3590326061,1184,6824,526,696,-22,-1176
3590326062,980,6942,716,789,-108,-1117
3590326063,1058,7114,899,1078,17,-836
3590326064,1194,6664,666,1628,-143,-1342
3590326065,1254,6594,498,1576,-279,-903
3590326066,1120,7116,664,1531,-398,-521
3590326067,1021,8598,1527,1303,-860,23
3590326068,1893,9367,1087,1726,-82,12
3590326069,-2008,11702,62,2417,711,-288
3590326070,621,5567,-1256,949,-524,-2442
3590326071,299,4979,-731,1484,-460,-193
3590326072,105,4644,-621,1440,-243,-174
3590326073,260,4521,-386,1331,-361,-95
3590326074,275,4597,-79,1283,-216,-50
3590326075,-9,4635,-194,1239,-16,-49
3590326076,-206,4783,-300,1195,-181,201
3590326077,-810,5297,-546,1228,-27,313
3590326078,-797,5257,-686,1056,-264,190
3590326079,-1258,5243,-944,1023,-69,248
3590326080,-1566,4804,-1235,822,-181,154
3590326081,-1870,4025,-2122,973,213,62
3590326082,-2645,3006,-3683,1074,-324,41
3590326083,-3888,2342,-4871,804,-312,140
3590326084,-5775,2483,-4685,174,-199,493
3590326085,-7361,3815,-2409,62,-74,1187
3590326086,-5221,5366,-1373,849,-156,1906
3590326087,-843,6006,-3,507,-773,1312
3590326088,1232,5600,1435,621,-485,420
3590326089,166,5128,1092,936,491,235
3590326090,-3336,5791,218,856,374,723
3590326091,-3579,6237,353,660,-387,1367
3590326092,-1528,5713,1175,648,-582,1158
3590326093,-1491,5620,1523,706,-228,1080
3590326094,-1064,5376,1011,859,-43,1398
3590326095,2761,3797,617,608,-563,2123
3590326096,3133,3182,1248,309,-785,1537
3590326097,3610,2927,334,608,124,1682
3590326098,3103,1810,128,290,-308,1570
3590326099,1742,1691,82,188,-230,1439
3590326100,1784,1142,56,248,-121,980
3590326101,1704,1017,201,259,-60,1499
3590326102,1529,838,245,229,-51,1235
3590326103,1189,718,376,180,-146,1254
3590326104,807,374,278,241,4,1310
3590326105,596,358,163,272,5,1421
3590326106,792,712,27,283,6,1612
3590326107,432,482,63,294,13,1249
3590326108,611,1049,-100,256,21,1618
3590326109,496,1368,-91,214,4,1337
3590326110,268,1140,-83,177,31,1332
3590326111,297,1530,-118,153,51,1432
3590326112,-271,1758,-148,201,17,799
3590326113,77,1678,-221,135,-17,868
3590326114,309,1405,-215,167,-26,1483
3590326115,1279,1440,-116,104,-94,1468
3590326116,2200,1474,-64,108,23,1676
3590326117,2351,1456,-33,109,90,1663
3590326118,1785,935,-9,94,130,1236
3590326119,1138,199,36,58,129,1170
3590326120,759,-22,51,60,137,1417
3590326121,525,-42,36,36,173,1395
3590326122,356,14,2,10,185,1371
3590326123,150,109,-103,7,184,1359
3590326124,-119,48,-307,158,244,1427
3590326125,-356,204,-342,137,204,1490
3590326126,-570,450,-437,-15,167,1502
3590326127,-823,992,-515,-155,15,1525
3590326128,-957,1662,-457,-326,43,1607
3590326129,-1076,2113,-421,-37,179,1481
3590326130,-797,1496,-390,-68,105,1128
3590326131,-1199,1196,-403,48,212,1258
3590326132,-3082,-3669,-192,-333,-384,-2402
3590326133,-963,-2057,367,84,87,2115
3590326134,-476,-1171,453,25,-17,1852
3590326135,-444,-353,144,-118,263,1488
3590326136,-163,-557,237,-20,-342,1141
3590326137,237,-887,385,-48,137,1239
3590326138,-594,-1412,312,7,-295,529
3590326139,1342,-1279,639,64,182,1405
3590326140,823,-1474,509,118,-165,1569
3590326141,503,-877,277,4,125,1682
3590326142,225,-326,109,73,7,1584
3590326143,60,79,73,62,-48,1560
3590326144,-9,610,-54,55,6,1554
3590326145,-233,1347,-139,149,12,1603
3590326146,100,616,-73,55,29,876
3590326147,393,9,5,56,22,1075
3590326148,518,-314,63,74,45,1234
3590326149,641,-531,76,69,57,1266
3590326150,683,-644,81,121,92,1325
3590326151,679,-597,54,65,100,1403
3590326152,681,-484,-18,55,140,1404
3590326153,654,-321,-24,94,107,1438
3590326154,592,-245,-19,119,135,1331
3590326155,621,-337,-11,92,118,1213
3590326156,649,-545,-24,97,150,1221
3590326157,732,-809,-49,44,160,1181
3590326158,853,-1142,-59,91,139,1236
3590326159,688,-1056,-86,153,166,1426
3590326160,575,-974,-87,151,175,1390
3590326161,584,-887,-108,138,180,1332
3590326162,600,-882,-143,138,192,1282
3590326163,-9,-668,-118,208,210,1429
3590326164,-239,-565,-100,155,157,1367
3590326165,-207,-353,-93,175,167,1418
3590326166,-213,-235,-104,198,187,1411
3590326167,-177,-137,-95,203,177,1376
3590326168,-185,-90,1,323,192,1309
3590326169,-208,-40,89,268,170,1334
3590326170,-258,-106,77,137,157,1273
3590326171,-293,-282,41,76,111,1240
3590326172,-317,-322,-23,87,135,1297
3590326173,-407,-447,-33,158,144,1241
3590326174,-561,-554,-52,198,166,1264
3590326175,-605,-512,-36,196,126,1415
3590326176,-504,-374,-28,226,117,1408
3590326177,-367,-240,-23,218,113,1376
3590326178,-292,-192,-13,227,115,1343
3590326179,-256,-152,-10,230,112,1340
3590326180,-265,-168,-11,220,100,1301
3590326181,-311,-184,-13,222,100,1322
3590326182,-221,-131,-9,235,99,1396
3590326183,-72,-29,-4,233,93,1386
3590326184,13,15,-5,232,88,1341
3590326185,55,23,7,243,93,1316
3590326186,-23,-59,43,236,94,1265
3590326187,-83,-102,43,212,91,1291
3590326188,-166,-150,30,202,97,1278
3590326189,-226,-186,14,213,89,1312
3590326190,-223,-174,10,225,84,1339
3590326191,-203,-164,15,217,81,1320
3590326192,-216,-176,13,211,73,1313
3590326193,-207,-164,17,219,63,1327
3590326194,-176,-135,20,226,62,1329
3590326195,-180,-140,10,235,59,1320
3590326196,-177,-121,7,232,51,1330
3590326197,-119,-79,7,239,60,1351
3590326198,-51,-34,1,234,58,1335
3590326199,-53,-26,4,219,27,1311
3590326200,-162,-58,65,201,36,1284
3590326201,-182,-63,64,244,90,1325
3590326202,-98,-14,68,220,38,1352
3590326203,-12,45,76,221,37,1359
3590326204,67,108,63,210,48,1354
3590326205,87,131,42,223,64,1309
3590326206,66,113,29,247,66,1300
3590326207,29,77,28,236,63,1293
3590326208,-64,17,19,239,63,1289
3590326209,-168,-49,30,225,63,1284
3590326210,-247,-92,32,216,51,1311
3590326211,-299,-114,31,210,32,1313
3590326212,-371,-142,30,220,35,1308
3590326213,-425,-168,21,238,23,1312
3590326214,-432,-168,17,244,24,1326
3590326215,-353,-126,6,246,10,1348
3590326216,-349,-117,3,224,5,1308
3590326217,-425,-143,-3,239,18,1299
3590326218,-489,-167,-8,236,12,1298
3590326219,-505,-153,-1,236,7,1316
3590326220,-591,-174,-5,233,-8,1300
3590326221,-676,-179,0,246,-6,1312
3590326222,-716,-192,0,246,-20,1322
3590326223,-734,-185,0,244,-36,1320
3590326224,-608,-124,25,236,-44,1321
3590326225,-561,-82,24,255,-51,1321
3590326226,-448,-31,17,252,-64,1346
3590326227,-362,17,3,256,-72,1327
3590326228,-292,98,14,238,-70,1323
3590326229,-228,162,5,241,-80,1322
3590326230,-172,172,3,232,-83,1325
3590326231,-141,181,7,238,-68,1307
3590326232,-102,168,-19,238,-82,1317
3590326233,-92,172,-47,230,-84,1313
3590326234,-105,189,-82,225,-88,1307
3590326235,-131,232,-93,223,-86,1300
3590326236,-388,492,-76,287,-71,1230
3590326237,-235,412,-59,166,-75,1362
3590326238,-187,325,-146,202,-125,1329
3590326239,-288,862,-236,226,-140,1234
3590326240,-157,516,-123,176,-114,1361
3590326241,-140,340,-156,171,-105,1324
3590326242,-127,283,-159,174,-116,1324
3590326243,-188,349,-163,170,-113,1314
3590326244,-282,328,-310,131,-139,1322
3590326245,-215,304,-247,164,-121,1332
3590326246,-331,461,-258,162,-143,1314
3590326247,-402,792,-254,160,-131,1353
3590326248,-201,992,-179,148,-93,1353
3590326249,-332,1201,-235,127,-116,1356
3590326250,-917,2064,-355,150,-121,1402
3590326251,-2076,-997,-92,-1964,3421,-10169
3590326252,-1052,1616,-64,-145,-32,572
3590326253,-556,732,112,-24,-249,1273
3590326254,-539,234,95,-21,-267,1314
3590326255,-328,52,63,-20,-289,1302
3590326256,-101,-29,83,-17,-285,1317
3590326257,-20,-59,74,-12,-276,1325
3590326258,60,-79,68,-13,-282,1322
3590326259,91,-81,79,-18,-278,1325
3590326260,91,-75,69,-16,-273,1323
3590326261,88,-67,61,-20,-270,1327
3590326262,71,-64,59,-15,-275,1326
3590326263,76,-67,61,-15,-270,1324
3590326264,87,-74,58,-17,-271,1325
3590326265,89,-71,57,-14,-268,1326
3590326266,85,-73,54,-16,-272,1329
3590326267,90,-75,59,-12,-273,1322
3590326268,123,-79,65,-15,-275,1321
3590326269,125,-76,68,-17,-270,1326
3590326270,106,-74,61,-14,-264,1328
3590326271,93,-64,51,-15,-264,1327
3590326272,44,-48,35,-15,-256,1335
3590326273,-22,-37,27,-13,-263,1330
3590326274,-34,-27,8,-15,-251,1327
3590326275,-29,-39,21,-13,-268,1319
3590326276,-37,-40,27,-15,-269,1324
3590326277,-4,-43,23,-19,-265,1328
3590326278,26,-46,10,-14,-265,1328
3590326279,43,-49,5,-12,-267,1324
3590326280,73,-58,12,-14,-272,1324
3590326281,76,-59,5,-12,-264,1323
3590326282,75,-63,19,-16,-272,1324
3590326283,55,-55,19,-13,-264,1328
3590326284,43,-69,21,-12,-264,1329
3590326285,22,-53,35,-16,-261,1323
3590326286,7,-48,42,-18,-262,1327
3590326287,-15,-43,48,-16,-264,1322
3590326288,-33,-40,48,-18,-261,1329
3590326289,-54,-36,49,-22,-267,1327
3590326290,-35,-39,47,-24,-269,1321
3590326291,52,-60,46,-15,-281,1317
3590326292,67,-62,41,-18,-269,1324
3590326293,65,-64,38,-17,-273,1327
3590326294,53,-56,38,-16,-268,1330
3590326295,20,-54,40,-11,-269,1326
3590326296,-5,-51,46,-16,-265,1325
3590326297,-7,-49,49,-11,-265,1327
3590326298,104,-74,66,-12,-277,1321
3590326299,118,-71,72,-15,-266,1326
3590326300,166,-63,84,-15,-271,1330
3590326301,257,1,137,-15,-275,1340
3590326302,341,46,136,-17,-257,1333
3590326303,520,68,134,-19,-260,1325
3590326304,812,89,668,0,-366,1341
3590326305,756,64,586,-19,-191,1313
3590326306,566,22,443,-48,-172,1319
3590326307,429,-6,247,-46,-161,1336
3590326308,361,15,221,-35,-202,1345
3590326309,267,-6,171,-33,-180,1326
3590326310,293,40,135,-28,-217,1354
3590326311,300,56,94,-37,-185,1331
3590326312,270,72,64,-37,-183,1339
3590326313,256,70,20,-50,-176,1327
3590326314,554,120,68,-76,-194,1390
3590326315,504,67,13,-41,-177,1297
3590326316,328,24,3,-46,-176,1327
3590326317,293,33,60,-62,-192,1350
3590326318,225,7,87,-42,-172,1319
3590326319,209,2,134,-59,-166,1347
3590326320,268,4,200,-84,-146,1340
3590326321,190,-26,194,-29,-174,1313
3590326322,175,-34,120,-55,-139,1352
3590326323,387,35,367,-265,-177,1378
3590326324,190,-5,192,68,-162,1292
3590326325,72,-35,189,-90,-147,1353
3590326326,148,12,229,-64,-140,1351
3590326327,93,-6,200,-26,-161,1335
3590326328,75,-24,177,-38,-154,1341
3590326329,83,-24,150,-43,-146,1347
3590326330,68,-22,155,-62,-140,1338
3590326331,51,-17,182,-70,-142,1352
3590326332,47,-13,190,-47,-135,1340
3590326333,38,-19,191,-57,-141,1347
3590326334,19,-33,152,-26,-138,1342
3590326335,42,-34,101,-50,-139,1343
3590326336,23,-53,88,-58,-136,1338
3590326337,27,-54,96,-66,-141,1350
3590326338,43,-37,138,-89,-129,1349
3590326339,33,-38,174,-79,-132,1341
3590326340,22,-46,164,-45,-151,1334
3590326341,31,-46,144,-44,-158,1343
3590326342,19,-58,98,-40,-153,1337
3590326343,46,-56,108,-72,-141,1351
3590326344,71,-51,148,-78,-136,1340
3590326345,91,-53,168,-69,-128,1345
3590326346,72,-43,171,-62,-141,1345
3590326347,33,-51,137,-39,-145,1339
3590326348,30,-47,113,-49,-144,1345
3590326349,18,-39,87,-47,-135,1349
3590326350,15,-13,84,-56,-136,1351
3590326351,21,14,85,-64,-134,1349
3590326352,34,26,80,-64,-133,1340
3590326353,36,12,68,-49,-141,1339
3590326354,41,-18,50,-56,-141,1337
3590326355,48,-38,45,-66,-128,1338
3590326356,35,-53,44,-68,-133,1343
3590326357,24,-59,44,-62,-133,1347
3590326358,28,-23,71,-87,-132,1367
3590326359,54,7,106,-55,-136,1355
3590326360,95,16,88,-49,-138,1355
3590326361,120,29,64,-57,-133,1352
3590326362,142,39,46,-66,-129,1342
3590326363,127,39,40,-71,-119,1336
3590326364,125,43,34,-68,-124,1353
3590326365,146,68,27,-68,-133,1370
3590326366,275,219,42,-71,-139,1436
3590326367,245,125,9,-79,-102,1319
3590326368,319,168,29,-82,-131,1405
3590326369,399,215,32,-82,-115,1359
3590326370,387,194,34,-90,-100,1324
3590326371,363,175,33,-92,-101,1339
3590326372,325,147,36,-96,-98,1321
3590326373,262,97,37,-97,-84,1319
3590326374,234,68,24,-100,-80,1330
3590326375,147,2,20,-101,-78,1298
3590326376,62,-48,19,-103,-87,1323
3590326377,23,-69,23,-98,-85,1335
3590326378,-35,-120,21,-95,-81,1313
3590326379,-106,-181,16,-93,-85,1321
3590326380,-152,-222,15,-94,-85,1329
3590326381,-212,-281,9,-93,-85,1314
3590326382,-229,-284,7,-88,-98,1359
3590326383,-226,-270,7,-89,-103,1347
3590326384,-241,-280,9,-87,-111,1340
3590326385,-193,-248,17,-74,-115,1372
3590326386,-160,-212,24,-77,-111,1361
3590326387,-159,-182,26,-69,-114,1351
3590326388,-155,-162,31,-75,-113,1356
3590326389,-145,-126,36,-74,-115,1362
3590326390,-125,-102,38,-70,-123,1355
3590326391,-96,-89,37,-69,-122,1348
3590326392,-73,-85,38,-70,-127,1347
3590326393,-34,-98,36,-66,-126,1347
3590326394,-11,-119,34,-66,-124,1338
3590326395,-1,-128,26,-67,-128,1348
3590326396,-119,-90,35,-58,94,3608
3590326397,-21,-111,3,-61,-118,1524
3590326398,21,-140,-5,-62,-122,1347
3590326399,15,-160,18,-63,-133,1352
3590326400,-6,-138,20,-59,-132,1348
3590326401,-2,-128,24,-53,-132,1344
3590326402,-1,-123,34,-56,-131,1348
3590326403,9,-117,37,-53,-133,1346
3590326404,22,-132,42,-57,-133,1332
3590326405,24,-148,42,-54,-127,1337
3590326406,22,-152,43,-54,-130,1342
3590326407,14,-161,40,-51,-130,1340
3590326408,13,-156,38,-46,-127,1343
3590326409,22,-141,39,-47,-128,1348
3590326410,25,-129,39,-42,-128,1349
3590326411,26,-115,41,-46,-130,1347
3590326412,27,-100,46,-42,-126,1346
3590326413,20,-90,46,-43,-129,1342
3590326414,15,-87,42,-40,-129,1346
3590326415,18,-90,44,-43,-124,1345
3590326416,16,-89,42,-45,-120,1342
3590326417,15,-94,41,-46,-127,1343
3590326418,12,-98,38,-33,-128,1340
3590326419,2,-100,34,-34,-127,1342
3590326420,-9,-104,32,-39,-130,1344
3590326421,-25,-101,32,-39,-127,1345
3590326422,-45,-110,28,-33,-127,1341
3590326423,-61,-113,26,-39,-127,1341
3590326424,-73,-112,30,-34,-129,1340
3590326425,-72,-116,34,-37,-130,1344
3590326426,-65,-113,35,-34,-133,1340
3590326427,-64,-111,32,-29,-136,1348
3590326428,-72,-110,32,-29,-135,1344
3590326429,-79,-111,32,-29,-139,1344
3590326430,-81,-111,36,-25,-141,1343
3590326431,-80,-113,32,-25,-142,1338
3590326432,-73,-117,32,-29,-139,1343
3590326433,-129,-143,32,-32,-139,1322
3590326434,-115,-121,33,-22,-144,1350
3590326435,-100,-110,39,-22,-142,1346
3590326436,-96,-103,38,-23,-149,1343
3590326437,-135,-96,38,-18,-146,1342
3590326438,-182,-110,32,-21,-151,1340
3590326439,-136,-98,27,-19,-159,1342
3590326440,-120,-107,60,-21,-126,1321
3590326441,-85,-89,48,-15,-155,1354
3590326442,-92,-95,40,-17,-154,1330
3590326443,-120,-93,48,-19,-161,1339
3590326444,-149,-101,30,-21,-157,1339
3590326445,-171,-95,30,-14,-165,1332
3590326446,-109,-85,34,-15,-172,1343
3590326447,-64,-90,35,-16,-170,1341
3590326448,-47,-82,31,-10,-173,1342
3590326449,-43,-80,25,-11,-172,1339
3590326450,-14,-58,38,-15,-186,1347
3590326451,13,-56,34,-12,-174,1343
3590326452,26,-57,31,-14,-170,1345
3590326453,37,-53,24,-12,-173,1341
3590326454,29,-51,30,-14,-171,1342
3590326455,27,-55,27,-18,-174,1340
3590326456,23,-58,19,-10,-176,1340
3590326457,21,-54,18,-10,-172,1338
3590326458,25,-51,16,-9,-174,1339
3590326459,31,-48,24,-12,-169,1339
3590326460,19,-49,36,-7,-171,1337
3590326461,9,-64,35,-11,-173,1335
3590326462,10,-59,37,-11,-172,1336
3590326463,6,-52,38,-11,-172,1342
3590326464,6,-48,36,-10,-174,1336
3590326465,6,-46,35,-10,-169,1338
3590326466,6,-53,39,-13,-175,1336
3590326467,9,-50,44,-12,-173,1342
3590326468,14,-46,42,-8,-173,1337
3590326469,19,-51,43,-10,-172,1336
3590326470,19,-47,41,-9,-173,1336
3590326471,25,-50,41,-9,-173,1339
3590326472,22,-48,38,-11,-172,1339
3590326473,17,-48,38,-13,-174,1338
3590326474,12,-51,40,-13,-176,1344
3590326475,5,-50,38,-11,-173,1340
3590326476,0,-51,40,-13,-171,1336
3590326477,3,-49,38,-9,-174,1342
3590326478,11,-49,34,-11,-172,1345
3590326479,10,-51,35,-8,-174,1341
3590326480,9,-50,37,-8,-174,1340
3590326481,2,-51,35,-8,-172,1338
3590326482,7,-53,37,-11,-176,1339
3590326483,12,-48,39,-10,-174,1340
3590326484,18,-49,39,-15,-176,1343
3590326485,17,-51,41,-10,-174,1338
3590326486,16,-50,42,-5,-176,1340
3590326487,15,-49,38,-8,-173,1340
3590326488,24,-50,38,-11,-172,1340
3590326489,29,-47,40,-11,-172,1342
3590326490,36,-46,37,-10,-179,1341
3590326491,39,-51,44,-7,-172,1338
3590326492,33,-50,40,-12,-176,1337
3590326493,17,-49,38,-11,-172,1341
3590326494,7,-48,39,-11,-174,1339
3590326495,10,-50,41,-7,-175,1336
3590326496,14,-52,41,-13,-176,1341
3590326497,13,-47,38,-11,-174,1339
3590326498,20,-48,38,-10,-175,1335
3590326499,22,-51,38,-11,-174,1339
3590326500,21,-49,38,-10,-175,1340
3590326501,15,-45,38,-8,-173,1338
3590326502,20,-51,36,-13,-177,1336
3590326503,23,-48,38,-10,-174,1340
3590326504,23,-42,36,-9,-171,1337
3590326505,20,-50,36,-7,-174,1340
3590326506,24,-52,34,-11,-174,1341
3590326507,29,-52,39,-12,-175,1336
3590326508,35,-50,35,-9,-175,1339
3590326509,32,-53,37,-8,-170,1336
3590326510,32,-49,36,-12,-169,1342
3590326511,32,-50,34,-13,-173,1342
3590326512,35,-54,39,-11,-175,1343
3590326513,35,-55,38,-10,-176,1337
3590326514,42,-51,36,-9,-175,1341
3590326515,45,-50,35,-14,-172,1342
3590326516,42,-51,36,-11,-177,1341
3590326517,35,-50,36,-9,-175,1339
3590326518,27,-53,36,-4,-169,1342
3590326519,28,-49,35,-7,-171,1339
3590326520,40,-53,37,-9,-175,1339
3590326521,41,-51,40,-5,-170,1341
3590326522,40,-50,39,-6,-168,1339
3590326523,29,-47,38,-9,-170,1341
3590326524,11,-49,34,-7,-169,1340
3590326525,10,-49,37,-7,-168,1341
3590326526,13,-48,37,-6,-168,1342
3590326527,20,-50,37,-8,-171,1338
3590326528,24,-51,36,-10,-170,1340
3590326529,20,-50,36,-8,-168,1342
3590326530,20,-49,38,-12,-171,1341
3590326531,23,-46,38,-8,-172,1336
3590326532,32,-51,39,-11,-174,1341
3590326533,39,-53,38,-5,-167,1335
3590326534,28,-51,37,-8,-170,1336
3590326535,14,-48,38,-13,-169,1337
3590326536,11,-43,40,-8,-169,1340
3590326537,11,-47,35,-14,-166,1337
3590326538,9,-48,39,-11,-170,1338
3590326539,5,-46,44,-10,-172,1343
3590326540,-3,-46,39,-10,-174,1339
3590326541,4,-48,40,-10,-169,1340
3590326542,18,-45,40,-5,-170,1338
3590326543,33,-47,39,-8,-175,1340
3590326544,32,-45,41,-5,-167,1341
3590326545,26,-49,38,-11,-171,1339
3590326546,11,-47,40,-11,-166,1337
3590326547,2,-43,39,-4,-171,1342
3590326548,10,-43,42,-12,-172,1342
3590326549,16,-47,40,-11,-171,1338
3590326550,22,-46,37,-10,-176,1339
3590326551,21,-48,41,-13,-171,1341
3590326552,16,-44,38,-12,-170,1338
3590326553,15,-47,37,-13,-170,1339
3590326554,24,-50,37,-14,-173,1341
3590326555,24,-52,40,-8,-175,1345
3590326556,28,-52,41,-12,-173,1339
3590326557,30,-49,41,-13,-169,1335
3590326558,25,-47,38,-7,-169,1337
3590326559,26,-51,38,-7,-175,1337
3590326560,26,-50,38,-7,-166,1339
3590326561,29,-51,34,-8,-172,1341
3590326562,22,-46,41,-5,-175,1342
3590326563,21,-50,37,-10,-173,1340
3590326564,23,-46,40,-10,-172,1338
3590326565,31,-50,42,-6,-170,1338
3590326566,36,-50,42,-8,-174,1340
3590326567,41,-49,41,-11,-170,1337
3590326568,33,-49,39,-15,-166,1341
3590326569,19,-50,40,-10,-166,1333
3590326570,17,-50,39,-8,-170,1335
3590326571,28,-45,39,-7,-171,1345
3590326572,29,-50,35,-10,-169,1340
3590326573,24,-49,39,-8,-167,1340
3590326574,21,-46,39,-9,-166,1335
3590326575,12,-51,38,-4,-168,1336
3590326576,10,-51,39,-9,-167,1342
3590326577,9,-48,36,-8,-171,1345
3590326578,16,-48,34,-6,-172,1345
3590326579,21,-48,36,-7,-171,1340
3590326580,28,-49,39,-12,-170,1337
3590326581,20,-49,41,-11,-171,1337
3590326582,8,-43,40,-11,-167,1334
3590326583,11,-44,41,-9,-166,1340
3590326584,27,-52,38,-6,-169,1339
3590326585,46,-57,39,-11,-173,1339
3590326586,56,-55,41,-8,-170,1341
3590326587,60,-56,41,-8,-164,1342
3590326588,59,-57,37,-8,-164,1341
3590326589,48,-52,35,-6,-167,1343
3590326590,39,-51,41,-7,-163,1340
3590326591,33,-51,39,-6,-168,1339
3590326592,28,-49,40,-9,-167,1342
3590326593,27,-50,37,-10,-167,1346
3590326594,29,-52,42,-9,-163,1338
3590326595,28,-53,41,-9,-170,1341
3590326596,25,-54,37,-7,-166,1341
3590326597,34,-50,34,-4,-164,1342
3590326598,37,-49,37,-8,-165,1335
3590326599,29,-47,40,-5,-165,1340
3590326600,21,-48,40,-5,-164,1342
3590326601,17,-46,35,-10,-164,1338
3590326602,21,-48,35,-5,-165,1341
3590326603,15,-47,35,-7,-166,1342
3590326604,6,-40,41,-8,-167,1340
3590326605,1,-44,39,-4,-169,1341
3590326606,3,-41,38,-5,-165,1342
3590326607,16,-47,38,-5,-161,1343
3590326608,25,-47,40,-7,-169,1336
3590326609,34,-52,37,-8,-163,1344
3590326610,26,-49,42,-6,-165,1342
3590326611,32,-51,44,-5,-164,1343
3590326612,36,-52,43,-6,-161,1343
3590326613,44,-53,42,-3,-166,1339
3590326614,41,-49,44,-7,-162,1336
3590326615,37,-45,43,-6,-161,1342
3590326616,29,-52,41,-4,-158,1336
3590326617,28,-51,40,-8,-162,1345
3590326618,34,-51,40,-9,-159,1337
3590326619,36,-52,39,-7,-161,1340
3590326620,23,-52,41,-8,-161,1338
3590326621,20,-52,43,-6,-159,1344
3590326622,22,-49,40,-11,-159,1341
3590326623,24,-49,41,-8,-162,1338
3590326624,21,-48,37,-9,-165,1343
3590326625,22,-46,37,-7,-165,1338
3590326626,13,-50,38,-6,-158,1341
3590326627,15,-46,38,-5,-160,1338
3590326628,14,-44,37,-8,-161,1340
3590326629,9,-46,35,-7,-161,1343
3590326630,11,-46,38,-6,-162,1346
3590326631,8,-41,40,-7,-160,1340
3590326632,2,-41,36,-3,-161,1334
3590326633,-2,-42,36,-8,-161,1344
3590326634,-4,-41,34,-4,-160,1345
3590326635,1,-42,38,-1,-159,1338
3590326636,11,-44,36,-4,-162,1335
3590326637,21,-48,36,-4,-163,1342
3590326638,16,-45,36,-4,-161,1344
3590326639,8,-43,34,-11,-165,1340
3590326640,6,-44,34,-9,-163,1341
3590326641,10,-43,37,-5,-163,1343
3590326642,7,-42,38,-5,-166,1344
3590326643,1,-38,34,-8,-165,1342
3590326644,3,-41,35,-5,-164,1336
3590326645,4,-43,34,-7,-163,1338
3590326646,3,-44,33,-8,-166,1345
3590326647,12,-46,35,-8,-170,1344
3590326648,15,-43,32,-11,-166,1343
3590326649,18,-44,33,-7,-165,1344
3590326650,15,-43,37,-11,-168,1340
3590326651,15,-46,38,-8,-161,1335
3590326652,14,-46,38,-6,-164,1337
3590326653,8,-46,37,-8,-165,1344
3590326654,2,-46,37,-7,-162,1344
3590326655,0,-44,36,-4,-164,1342
3590326656,-3,-47,32,-6,-170,1340
3590326657,4,-47,34,-8,-165,1340
3590326658,12,-47,33,-6,-168,1339
3590326659,17,-48,34,-6,-167,1342
3590326660,18,-48,33,-6,-174,1342
3590326661,28,-51,33,-7,-167,1338
3590326662,30,-51,37,-5,-169,1339
3590326663,30,-48,37,-10,-164,1341
3590326664,19,-48,36,-9,-168,1341
3590326665,18,-48,37,-10,-166,1343
3590326666,11,-45,38,-10,-165,1338
3590326667,8,-46,35,-5,-165,1341
3590326668,3,-45,34,-10,-165,1343
3590326669,7,-48,35,-8,-166,1340
3590326670,15,-45,36,-6,-167,1339
3590326671,16,-46,34,-12,-166,1340
3590326672,18,-44,35,-10,-164,1336
3590326673,27,-47,36,-11,-166,1343
3590326674,22,-48,36,-9,-166,1338
3590326675,23,-44,38,-8,-162,1341
3590326676,19,-41,38,-10,-170,1340
3590326677,12,-38,41,-7,-165,1342
3590326678,13,-46,34,-6,-166,1335
3590326679,20,-48,34,-11,-167,1340
3590326680,24,-45,34,-7,-169,1341
3590326681,23,-51,38,-6,-167,1338
3590326682,31,-49,39,-8,-163,1344
3590326683,29,-49,37,-6,-170,1340
3590326684,20,-44,38,-6,-162,1341
3590326685,20,-46,38,-6,-164,1344
3590326686,26,-45,38,-6,-165,1341
3590326687,25,-47,36,-9,-166,1341
3590326688,20,-46,36,-6,-168,1340
3590326689,17,-43,35,-3,-166,1339
3590326690,16,-43,37,-6,-164,1338
3590326691,12,-43,35,-8,-164,1339
3590326692,17,-44,35,-7,-166,1341
3590326693,12,-47,33,-4,-167,1339
3590326694,16,-46,36,-7,-167,1346
3590326695,19,-48,38,-6,-161,1338
3590326696,20,-44,42,-5,-165,1342
3590326697,17,-46,36,-7,-164,1343
3590326698,17,-47,39,-15,-168,1339
3590326699,16,-47,38,-9,-165,1345
3590326700,11,-47,36,-3,-168,1339
3590326701,15,-46,37,-5,-170,1344
3590326702,10,-45,35,-7,-168,1341
3590326703,6,-42,33,-8,-165,1339
3590326704,8,-45,33,-4,-165,1339
3590326705,7,-44,35,-7,-168,1341
3590326706,5,-41,36,-5,-169,1343
3590326707,8,-43,35,-8,-168,1338
3590326708,15,-45,40,-9,-167,1339
3590326709,19,-48,37,-5,-167,1344
3590326710,18,-47,35,-8,-171,1343
3590326711,15,-49,33,-6,-167,1342
3590326712,17,-49,36,-3,-163,1339
3590326713,17,-46,38,-3,-165,1341
3590326714,11,-45,37,-4,-167,1347
